M48
;Layer_Color=9474304
;FILE_FORMAT=4:3
METRIC,LZ
;TYPE=PLATED
T1F00S00C0.250
T2F00S00C0.300
T3F00S00C0.500
T4F00S00C0.600
T5F00S00C0.900
T6F00S00C1.050
T7F00S00C1.100
T8F00S00C1.300
T9F00S00C2.700
%
T01
X00085Y00015
X0036
X0049
X0073Y0008975
X00713Y0014502
X007808Y0008895
X0095Y00055
X0096
X00995
X010025
X0101299Y0004951
X010125Y0007727
X010555Y000695
X01055Y0005475
X01072Y0004675
X011056Y0004665
X011129Y0005935
X0112Y0007225
X011202Y0009745
X010775Y00104
X0096Y00015
X0124
X01248Y0005725
X0125975
X0127525Y0007625
Y0008275
X012075Y0008725
Y0009356
X012046Y0011015
X012044Y0012285
X0122Y0010975
X012075Y0006816
Y0006185
X0156Y00015
X011055Y002545
Y00275
X00937Y0034275
Y0035275
Y0036275
Y0037275
Y0038275
Y0039275
X00927
X00917
X00907
Y0040275
X00917
Y0041275
X00907
Y0042275
X00897
X008875Y0042275
Y004325
X00877Y0043275
Y0042275
Y0041275
X00887
Y0040275
X00877
Y0039275
X00887
Y0038275
Y0037275
X00877
Y0038275
Y0036275
X00887
Y0035275
X00877
Y0034275
X00887
X00897Y0034275
Y0035275
X00907
X00917
X00927
Y0034275
X00917Y0034275
X00907Y0034275
X00907Y0036275
X00897
Y0037275
Y0038275
X00907
X00907Y0037275
X00917
Y0038275
X00927
Y0037275
Y0036275
X00917
X00867
X00857
Y0037275
Y0038275
X00847
Y0037275
Y0036275
Y0035275
Y0034275
X00837
Y0035275
X00827
X00817
Y0034275
X00827
X00807
Y0035275
Y0036275
X00817
X00827
Y0037275
Y0038275
X00837
X00847Y0039275
Y0040275
Y0041275
X00857
Y0040275
Y0039275
X00867Y0040275
Y0041275
X00837
Y0040275
X00817
Y0041275
Y0039275
X00807
X00797
Y0038275
Y0037275
Y0036275
Y0035275
X00777
Y0036275
Y0037275
Y0038275
X00767
Y0037275
X00757
X00747
Y0038275
X00757
Y0039275
X00747
Y0040275
Y0041275
X00757
X00747Y0042275
Y0043275
Y0044275
Y0045275
X00757
Y0046275
Y0047275
X00747
Y0046275
X00767
X00777
Y0045275
Y0044275
Y0043275
X00767
Y0045275
X00797
X00807
X00817
Y0044275
X00807
Y0043275
X00797
Y0044275
Y0042275
X00778Y0040375
X00757Y0036275
X00747
Y0034275
X00857
Y0035275
X00867
Y0034275
Y0037275
X00847Y0042275
Y0045275
X00857
Y0044275
X00867Y0045275
Y0046275
Y0047275
X00877
Y0046275
X00887
Y0047275
X00897
Y0046275
X00907
Y0047275
X00917
Y0046275
X00927
Y0047275
Y0048275
X00937
Y0047275
Y0046275
Y0045275
Y0044275
Y0043275
Y0042275
X00927
Y0041275
Y0040275
X00937
Y0041275
X00927Y0043275
Y0044275
X00917
X00907
Y0045275
X00917
X00927
X00897
X00887
X00877
Y0048275
X00887
X00897
X00907
X00917
Y0050275
X00907
Y0051275
X00917
Y0052275
X00907
Y0053275
X00917
Y0054275
X00907
X00897
X00887
X00877
X00867
X00857
X00847
X00837
Y0053275
Y0052275
Y0051275
X00847
Y0052275
Y0053275
X00857
X00867
X00877
X00887
Y0052275
X00897
Y0053275
Y0051275
Y0050275
X00887
X00877
X00867
Y0051275
Y0052275
X00877
Y0051275
X00887
X00857
Y0052275
Y0050275
X00847
X00837
X00817
X00807
X00797
Y0051275
Y0052275
X00807
Y0051275
X00817
Y0052275
X00827
X00817Y0053275
Y0054275
X00827
X00807Y0054275
X00797Y0054275
Y0053275
X00807
X00777
Y0054275
X00767
Y0053275
X00757
Y0052275
Y0051275
X00747
Y0050275
X00757
X007675Y0050225
Y0051225
X007775
X00777Y0052275
X00767
X00747Y0052275
Y0054275
X00757
Y0048275
X00747
X007775Y0048325
X00797Y0048275
X00807
Y0047275
Y0046275
X00797
Y0047275
X00817
X00817Y0046275
X00827Y0047275
Y0048275
X00817
X00837
X00847
Y0047275
Y0046275
X00857
Y0047275
Y0048275
X00867
X00837Y0045275
X00827Y0043275
X00917Y0043275
X00927Y0050275
X00937
Y0051275
Y0052275
Y0053275
X00927
Y0052275
Y0051275
Y0054275
X00937
X00841Y002495
X00785Y002405
X0078Y002355
X0077Y002405
X00765Y002355
X0076375Y0020975
X00755Y0021025
X00746
X00755Y0018975
X0078Y00184
X008
Y0021025
X0079125Y0021
X00755Y0015475
X00735Y00184
X00715
X0071875Y0021
X0071Y0021025
X0072Y002355
X00725Y002405
X0074
X00735Y002355
X00737Y0034275
Y0035275
X00727
Y0034275
X00717
Y0035275
Y0036275
X00707
X00687
Y0037275
X00697
Y0038275
Y0039275
X00707
X00717
Y0038275
Y0037275
X00727
Y0038275
X00737
Y0037275
Y0036275
X00727
Y0039275
Y0040275
Y0041275
X00737
Y0040275
Y0039275
Y0042275
X00727
Y0043275
X00717
Y0044275
X00707
X00697
Y0043275
X00687
X00677
Y0042275
X00687
X00667
X00657
Y0041275
Y0040275
X00667
Y0041275
X00677
Y0040275
Y0039275
X00667
X00657
X00647
Y0038275
Y0037275
X00637
Y0038275
Y0039275
Y0040275
Y0041275
Y0042275
X00647
Y0041275
Y0040275
Y0043275
X00637
Y0045275
X00647
Y0047275
X00637
Y0050275
X00647
Y0052275
X00637
Y0054275
X00647
X00667Y0053275
Y0051275
Y0048275
Y0046275
Y0044275
X00657
X00687Y0045275
Y0047275
X00707Y0046275
X00717
Y0047275
Y0048275
X00727
X00737
Y0047275
Y0046275
X00727
Y0047275
Y0045275
X00717
X00737
Y0043275
X00717Y0040275
X00707
Y0041275
X00677Y0038275
X00667
X00657
Y0037275
X00667
X00657Y0036275
Y0035275
Y0034275
X00667
X00677
Y0035275
X00687
Y0034275
X00697
X00677Y0036275
X00647
Y0035275
Y0034275
X00637Y0036275
X0059175Y003805
X0057325
X0057475Y0043
X0059274
X00707Y0048275
Y0051275
X00717
Y0052275
Y0053275
X00727
Y0054275
X00717
X00707Y0053275
X00687Y0054275
Y0052275
Y0050275
X00717
X00727
Y0051275
Y0052275
X00737
Y0051275
Y0050275
Y0054275
X003835Y005105
X00353Y00309
X00357Y00196
X007085Y0014975
X0034025Y007435
X00296Y0073175
X00272Y0073675
X00283Y0076275
X00296Y0077875
X00297Y0080475
X00303Y0086375
X0031982Y008798
X00324Y0089075
X0033Y0092725
X003195Y0093275
X002475Y0092975
X002585Y0090225
X002725Y0088975
X002765Y0085175
X00256Y0086125
X00255Y0084225
X00219Y00824
X0020225Y0080575
X001775Y008
X00234Y008005
X0021Y0076
X001625Y007525
X001675Y008725
X001605Y0091825
X001415Y0091825
X00215Y009025
X00358Y0085375
X00378Y00848
X00385Y0085475
X00395Y0087975
X0041Y0086975
X00429Y0084975
X00441Y0088125
X0048975Y008864
Y008737
Y00861
X0050245Y008483
X0051515
X0052785
X0054055
X0055325
X0057865
X0059135
X0060405
X0061675
X0062945
X0064215
Y00861
Y008737
Y008864
Y008991
Y009118
Y009245
X0062945Y008991
Y008737
X0060405
Y008229
Y008102
X0061675
Y008229
X0062945
X00642Y0082275
Y0081075
Y0079775
X0062945Y007975
Y008102
Y007848
X00642Y0078475
X0061675Y007848
X0060405
Y007975
X0061675
X0057865
Y008102
Y008229
Y008356
X00565Y0082275
X0055325Y008229
X0054055
X0052785
Y008102
X0054055
Y007975
X0052785
X00528Y0078475
X0054
X00553
X00565
X0056475Y007985
X00565Y0081075
X0055325Y008102
Y007975
X0050245
Y008102
Y008229
Y008356
X0052785Y008737
Y008864
Y008991
Y009118
Y009245
X00528Y0093775
X0054055Y009118
Y008991
Y008737
X0048975Y008991
Y009118
Y009245
X004375Y0093975
X00441Y0080775
X0045Y0080325
X00398Y0080675
X0039Y0079275
X00395Y0078475
X0038875Y00779
X00373Y0077875
X0036425Y0076075
X0037225Y007415
X00441Y0073275
X00495Y0073225
Y0072325
Y0074125
X00491Y00765
X00545Y0070475
X00595Y0072225
Y0073225
Y0074125
X006335Y0070825
X0068425Y007075
X0068375Y0073025
X0068425Y007595
X006612Y0079115
X00706Y0079695
Y0080965
Y0082235
Y0083505
Y0084775
X007187
X007314
X0073105Y008229
Y008102
Y007975
X00731Y0078475
X007314Y0087315
Y0088585
Y0089855
Y0091125
Y0092395
X00731Y0093775
X0069295Y009245
Y009118
Y008991
Y008864
Y008737
Y00861
X0065485Y0088005
X00604Y0093775
X00637Y0064275
X00647
X0065175Y0064745
X00657Y0065175
X00667Y0063275
X00677Y0064275
X00687
X006865Y006562
X0068375Y0067825
X00687Y0062275
X00688Y0060175
X00707Y0059275
X00717
X00727
X00737
Y0060275
Y0061275
Y0062275
Y0063275
Y0064275
X00727Y0063275
X00717
Y0064275
Y0062275
Y0061275
Y0060275
X00727
Y0061275
X00707
Y0063275
Y0057275
X00717
Y0058275
X00727
Y0057275
X00737
Y0058275
Y0056275
X00727
X00717
Y0055275
X00707
X00727
X00737
X00687Y0056275
X00697Y0057275
X00667Y0057275
Y0059275
Y0061275
X00647Y0060275
X00637
Y0062275
X00647
Y0058275
X00637
Y0056275
X00647
X00667Y0055275
X004705Y0057425
X003665Y006545
X00363Y0082061
X0074375Y008229
X0075645
X00768Y0082275
Y0081075
X0075645Y008102
Y007975
X00768Y0079775
Y0078475
X00757
X00744
X0074375Y007975
Y008102
X007441Y0084775
X007568
X007822
X007949
X008076
X008203
X00833
X008457
X0084535Y00861
Y008737
X0083265
Y008991
X0084535
Y008864
Y009118
Y009245
X008076Y0092395
Y0091125
Y0089855
Y0088585
Y0087315
X0080725Y008229
X0081995
X0083265
X0084535
Y008102
X0083265
X0081995
X0080725
Y007975
Y007848
X0081995
X0083265
X0084535
Y007975
X0083265
X0081995
X0081225Y00772
X00811Y0073825
X00781Y00767
X007822Y0079695
Y0080965
Y0082235
Y0083505
X0074375Y00861
Y008991
Y009118
X00807Y0093775
X00875Y0089975
X0090885Y008864
Y008737
X0092155
X0093425
X0094695
Y00861
Y008483
X0093425
Y00861
X0092155
X0090885
X0092155Y008483
X0092375Y008305
X009735Y00831
X0099175Y008185
X010095Y0081575
X010195Y0083275
X0098505Y00861
X0097235
Y008737
X0098505
Y008864
X0097235
Y008991
X0098505
Y009118
X0097235
X0095965
X0094695
X0093425
Y009245
X0092155
Y009118
Y008864
X0093425
X0094695
Y009245
X0095965
X0097235
X0098505
X0099775Y009118
X0101045
X0102315
X0103585
Y009245
X0102315
X0107375Y00935
X0107375Y0089175
X0097125Y0079875
X0096575Y00761
X009655Y0073225
X0096525Y007075
X00965Y0067825
X00937Y0064275
Y0063275
X00927
Y0064275
X00917
Y0063275
X00907
Y0064275
X00897
Y0063275
Y0062275
X00907
X00917
X00927
X00937
X00937Y0061275
Y0060275
Y0059275
Y0058275
Y0057275
X00927
Y0058275
Y0059275
Y0060275
Y0061275
X00917
X00907
Y0060275
X00917
Y0059275
X00907
Y0058275
Y0057275
X00917
Y0058275
Y0056275
X00907
X00897
Y0057275
Y0058275
Y0059275
Y0060275
Y0061275
X00887
Y0060275
X00877
Y0061275
X00867
Y0060275
X00857
Y0061275
X00847
Y0062275
X00837
Y0063275
Y0064275
X00847
Y0063275
X00857
Y0064275
X00867
Y0063275
Y0062275
X00857
X00877
X00887
Y0063275
Y0064275
X00877
Y0063275
Y0059275
X00887
X00877Y0058275
Y0057275
X00887
Y0056275
X00877
X00867
X00857
X00847
Y0057275
Y0058275
X00857
Y0057275
X00867
Y0058275
X00857Y0059275
X0083675Y005925
X00837Y0058275
X00827
Y0057275
X00817
X0081713Y0056287
X00807Y0056275
X00797
Y0057275
Y0058275
X00807
Y0057275
Y0059275
Y0060275
Y0061275
X00797
Y0060275
Y0062275
Y0063275
Y0064275
X00807
Y0063275
X00817
Y0064275
X00827
Y0063275
Y0062275
X00817
X00807
X00817Y0061275
X00827
Y0060275
Y0059275
X00817
Y0058275
X0083675Y006025
X00837Y0061275
Y0056275
X00827Y0055275
X00847Y0055275
X00857
X00867
X00877
X00887
X00897
X00907
X00917
X00927
X00937
Y0056275
X00927
X00807Y0055275
X00797
X00777
X00767
X00757
X00747
Y0056275
X00757
X00767
Y0057275
Y0058275
X00777
Y0057275
Y0056275
Y0059275
Y0060275
Y0061275
Y0062275
Y0063275
Y0064275
X00767
Y0063275
X00757
Y0064275
X00747Y0064275
Y0063275
Y0062275
X00757
Y0061275
Y0060275
X00747
Y0061275
Y0059275
X00757
X00767
Y0060275
Y0061275
Y0062275
X00757Y0058275
Y0057275
X00747
X0074525Y0070425
X0074625Y0072875
X0085725Y0076025
X00865Y0084975
X0116725Y00938
X0157Y00985
X01225
X0115Y0098
X010885Y00962
X0098Y00985
X008885Y0095075
X00875Y0094975
X0057067Y009645
X0049775Y00954
X0047Y00985
X0044Y00965
X00375Y0096225
X0037Y00985
X0036233Y0094208
X003175Y0094225
X003275Y0096225
X002605Y0095175
X00189Y0096475
X001415Y0096325
X00099Y0095675
X00095Y00985
T02
X0062225Y00443
X006055Y0052525
X006055Y0055725
X004565Y00707
X0038575Y00732
X00373Y0081475
X008175Y0095975
X0069675Y009535
X0061078Y0095356
T03
X002405Y0012275
X002555
X002705
X002855
X003005
Y0014125
X002855
X002705
X002555
X002405
X01426Y0012975
X0144
X01454
X01468Y0012975
X01482Y0012975
X01496
X0151
X01524
X01523Y0010975
X01537
X01509
X01495
X01481
X01467
X01453
X01439
X01425
X01426Y0008975
X0144Y0008975
X01454
X01468Y0008975
X01482Y0008975
X01496
X0151
X01524
X01523Y0006975
X01537
X01509
X01495
X01481
X01467
X01453
X01439
X01425
X01551
X01565
X01579
X0158Y0008975
X01566
X01552
X01538
X01551Y0010975
X01565
X01579
X0158Y0012975
X01566
X01552
X01538
X01551Y0014975
X01565
X01579
X0158Y0016975
X01566
X01552
X01538
X01551Y0018975
X01565
X01579
X0158Y0020975
X01566
X01552
X01538
X01551Y0026475
X01565
X01579
X0158Y0028475
X01566
X01552
X01538
X01551Y0030475
X01565
X01579
X0158Y0032475
X01566
X01552
X01538
X01551Y0034475
X01565
X01579
X0158Y0036475
X01566
X01552
X01538
X01551Y0038475
X01565
X01579
X0158Y0040475
X01566
X01552
X01538
X01551Y0042975
X01565
X01579
X0158Y0044975
X01566
X01552
X01538
X01551Y0046975
X01565
X01579
X0158Y0048975
X01566
X01552
X01538
X01551Y0050975
X01565
X01579
X0158Y0052975
X01566
X01552
X01538
X01524
X0151
X01496
X01482
X01468Y0052975
X01454Y0052975
X0144
X01426
X01425Y0050975
X01439
X01453
X01467
X01481
X01495
X01509
X01523
X01537
X01524Y0048975
X0151
X01496
X01482
X01468Y0048975
X01454Y0048975
X0144
X01426
X01425Y0046975
X01439
X01453
X01467
X01481
X01495
X01509
X01523
X01537
X01524Y0044975
X0151
X01496
X01482
X01468Y0044975
X01454Y0044975
X0144
X01426Y0044975
X01425Y0042975
X01439
X01453
X01467
X01481
X01495
X01509
X01523
X01537
X01524Y0040475
X0151
X01496
X01482
X01468
X01454
X0144
X01426
X01425Y0038475
X01439
X01453
X01467
X01481
X01495
X01509
X01523
X01537
X01524Y0036475
X0151
X01496
X01482
X01468Y0036475
X01454Y0036475
X0144
X01426
X01425Y0034475
X01439
X01453
X01467
X01481
X01495
X01509
X01523
X01537
X01524Y0032475
X0151
X01496
X01482
X01468Y0032475
X01454Y0032475
X0144
X01426
X01425Y0030475
X01439
X01453
X01467
X01481
X01495
X01509
X01523
X01537
X01524Y0028475
X0151
X01496
X01482
X01468Y0028475
X01454Y0028475
X0144
X01426Y0028475
X01425Y0026475
X01439
X01453
X01467
X01481
X01495
X01509
X01523
X01537
X01524Y0020975
X0151
X01496
X01482
X01468
X01454
X0144
X01426
X01425Y0018975
X01439
X01453
X01467
X01481
X01495
X01509
X01523
X01537
X01524Y0016975
X0151
X01496
X01482
X01468Y0016975
X01454Y0016975
X0144
X01426
X01425Y0014975
X01439
X01453
X01467
X01481
X01495
X01509
X01523
X01537
X003005Y0015975
X002855
X002705
X002555
X002405
Y0017825
X002555
X002705
X002855
X003005
Y002815
X002855
X002705
X002555
X002405
Y003
X002555
X002705
X002855
X003005
Y003185
X002855
X002705
X002555
X002405
Y00337
X002555
X002705
X002855
X003005
Y0044025
X002855
X002705
X002555
X002405
Y0045875
X002555
X002705
X002855
X003005
Y0047725
X002855
X002705
X002555
X002405
Y0049575
X002555
X002705
X002855
X003005
Y00599
X002855
X002705
X002555
X002405
Y006175
X002555
X002705
X002855
X003005
Y00636
X002855
X002705
X002555
X002405
Y006545
X002555
X002705
X002855
X003005
X01426Y0065475
X0144
X01454
X01468Y0065475
X01482Y0065475
X01496
X0151
X01524
X01523Y0067475
X01537
X01509
X01495
X01481
X01467
X01453
X01439
X01425
X01426Y0069475
X0144
X01454
X01468Y0069475
X01482Y0069475
X01496
X0151
X01524
X01523Y0071475
X01537
X01509
X01495
X01481
X01467
X01453
X01439
X01425
X01426Y0073475
X0144
X01454
X01468
X01482
X01496
X0151
X01524
X01523Y0078975
X01537
X01509
X01495
X01481
X01467
X01453
X01439
X01425
X01426Y0080975
X0144Y0080975
X01454
X01468Y0080975
X01482Y0080975
X01496
X0151
X01524
X01523Y0082975
X01537
X01509
X01495
X01481
X01467
X01453
X01439
X01425
X01426Y0084975
X0144
X01454
X01468Y0084975
X01482Y0084975
X01496
X0151
X01524
X01523Y0086975
X01537
X01509
X01495
X01481
X01467
X01453
X01439
X01425
X01426Y0088975
X0144
X01454
X01468Y0088975
X01482Y0088975
X01496
X0151
X01524
X01523Y0090975
X01537
X01509
X01495
X01481
X01467
X01453
X01439
X01425
X01426Y0092975
X0144
X01454
X01468
X01482
X01496
X0151
X01524
X01523Y0063475
X01537
X01509
X01495
X01481
X01467
X01453
X01439
X01425
X01426Y0061475
X0144Y0061475
X01454
X01468Y0061475
X01482Y0061475
X01496
X0151
X01524
X01523Y0059475
X01537
X01509
X01495
X01481
X01467
X01453
X01439
X01425
X01426Y0056975
X0144
X01454
X01468
X01482
X01496
X0151
X01524
X01523Y0054975
X01537
X01509
X01495
X01481
X01467
X01453
X01439
X01425
X01551
X01565
X01579
X0158Y0056975
X01566
X01552
X01538
X01551Y0059475
X01565
X01579
X0158Y0061475
X01566
X01552
X01538
X01551Y0063475
X01565
X01579
X0158Y0065475
X01566
X01552
X01538
X01551Y0067475
X01565
X01579
X0158Y0069475
X01566
X01552
X01538
X01551Y0071475
X01565
X01579
X0158Y0073475
X01566
X01552
X01538
X01551Y0078975
X01565
X01579
X0158Y0080975
X01566
X01552
X01538
X01551Y0082975
X01565
X01579
X0158Y0084975
X01566
X01552
X01538
X01551Y0086975
X01565
X01579
X0158Y0088975
X01566
X01552
X01538
X01551Y0090975
X01565
X01579
X0158Y0092975
X01566
X01552
X01538
T04
X00112Y0005
X001247
X001374
T05
X00473Y000755
X004984
X005238
X005492
X005746
X006
X006254
X006508
X00841Y0007495
Y0010035
Y0012575
Y0017395
Y0019935
Y0022475
X006518Y001495
X006264
X00601
X005756
X005502
X005248
X004994
X00474
X005785Y0047035
Y0049575
Y0052115
Y0054655
Y0057195
Y0059735
Y0062275
X01202Y0090875
X012528
T06
X002235Y0012275
Y0014125
Y0015975
Y0017825
Y002815
Y003
Y003185
Y00337
Y0044025
Y0045875
Y0047725
Y0049575
Y00599
Y006175
Y00636
Y006545
T07
X00045Y0075125
X000704
Y0077665
X00045
Y0080875
X000704
Y0083415
X00045
Y0086625
X000704
Y0089165
X00045
T08
X000305Y0010275
X000505Y0020275
X000305Y002615
X000505Y003615
X000305Y0042025
X000505Y0052025
X000305Y00579
X000505Y00679
T09
X000357Y000555
Y009445
M30
