%FSLAX44Y44*%
%MOMM*%
G71*
G01*
G75*
G04 Layer_Physical_Order=6*
G04 Layer_Color=255*
%ADD10R,1.7500X2.6050*%
%ADD11R,1.4000X9.6050*%
%ADD12R,0.2000X7.7000*%
%ADD13R,13.8000X8.3500*%
G04:AMPARAMS|DCode=14|XSize=1.505mm|YSize=1mm|CornerRadius=0.175mm|HoleSize=0mm|Usage=FLASHONLY|Rotation=0.000|XOffset=0mm|YOffset=0mm|HoleType=Round|Shape=RoundedRectangle|*
%AMROUNDEDRECTD14*
21,1,1.5050,0.6500,0,0,0.0*
21,1,1.1550,1.0000,0,0,0.0*
1,1,0.3500,0.5775,-0.3250*
1,1,0.3500,-0.5775,-0.3250*
1,1,0.3500,-0.5775,0.3250*
1,1,0.3500,0.5775,0.3250*
%
%ADD14ROUNDEDRECTD14*%
G04:AMPARAMS|DCode=15|XSize=1.8mm|YSize=2.4mm|CornerRadius=0.315mm|HoleSize=0mm|Usage=FLASHONLY|Rotation=0.000|XOffset=0mm|YOffset=0mm|HoleType=Round|Shape=RoundedRectangle|*
%AMROUNDEDRECTD15*
21,1,1.8000,1.7700,0,0,0.0*
21,1,1.1700,2.4000,0,0,0.0*
1,1,0.6300,0.5850,-0.8850*
1,1,0.6300,-0.5850,-0.8850*
1,1,0.6300,-0.5850,0.8850*
1,1,0.6300,0.5850,0.8850*
%
%ADD15ROUNDEDRECTD15*%
G04:AMPARAMS|DCode=16|XSize=1.505mm|YSize=1mm|CornerRadius=0.175mm|HoleSize=0mm|Usage=FLASHONLY|Rotation=270.000|XOffset=0mm|YOffset=0mm|HoleType=Round|Shape=RoundedRectangle|*
%AMROUNDEDRECTD16*
21,1,1.5050,0.6500,0,0,270.0*
21,1,1.1550,1.0000,0,0,270.0*
1,1,0.3500,-0.3250,-0.5775*
1,1,0.3500,-0.3250,0.5775*
1,1,0.3500,0.3250,0.5775*
1,1,0.3500,0.3250,-0.5775*
%
%ADD16ROUNDEDRECTD16*%
%ADD17R,3.1000X7.0000*%
%ADD18R,0.9000X12.2100*%
%ADD19R,0.5000X0.5000*%
%ADD20R,1.7000X0.4500*%
%ADD21R,2.0000X1.8000*%
%ADD22R,1.6000X2.7000*%
%ADD23C,2.1600*%
%ADD24R,0.5000X0.5000*%
%ADD25O,2.2000X0.6000*%
%ADD26C,1.5000*%
%ADD27C,0.4500*%
%ADD28C,0.2540*%
%ADD29C,0.5000*%
%ADD30C,1.0000*%
%ADD31C,0.6000*%
%ADD32C,2.0000*%
%ADD33C,4.0000*%
%ADD34C,5.0000*%
%ADD35C,1.8000*%
%ADD36C,0.4000*%
%ADD37C,2.5000*%
%ADD38C,3.0000*%
%ADD39R,2.6670X3.8100*%
%ADD40R,2.7940X3.8100*%
%ADD41R,2.0188X3.6830*%
%ADD42R,2.9078X4.0250*%
%ADD43R,2.0188X4.4450*%
%ADD44C,1.7000*%
%ADD45C,0.8500*%
%ADD46C,1.0500*%
%ADD47C,3.0500*%
%ADD48C,0.9000*%
%ADD49R,2.0000X2.0000*%
%ADD50R,2.0000X2.0000*%
%ADD51C,2.0000*%
%ADD52C,0.5000*%
%ADD53C,1.0000*%
%ADD54C,1.5000*%
%ADD55C,0.8000*%
%ADD56C,0.1520*%
%ADD57C,0.3300*%
%ADD58R,1.0000X1.1000*%
%ADD59R,1.1000X1.0000*%
%ADD60R,0.6000X1.1000*%
%ADD61R,0.7000X0.9000*%
%ADD62R,0.5800X1.2000*%
%ADD63R,3.2000X2.5000*%
%ADD64R,2.7000X1.6000*%
%ADD65O,0.3500X1.7000*%
%ADD66C,0.2000*%
%ADD67C,0.5080*%
%ADD68R,1.1430X3.1101*%
%ADD69R,2.2860X6.2230*%
%ADD70R,2.7940X6.7310*%
G36*
X1045910Y1187460D02*
X1041621D01*
Y1193629D01*
X1028622D01*
Y1190707D01*
X1011369D01*
X1011369Y1190707D01*
X1010067Y1190448D01*
X1009808Y1190397D01*
X1008485Y1189512D01*
X1008485Y1189512D01*
X999146Y1180174D01*
X998262Y1178851D01*
X997952Y1177290D01*
X998023Y1176931D01*
Y1175069D01*
X995602D01*
Y1161069D01*
X1008602D01*
Y1175069D01*
X1007236D01*
X1006750Y1176242D01*
X1013058Y1182550D01*
X1019240D01*
Y1159053D01*
X1015334Y1155147D01*
X1008602D01*
Y1158069D01*
X995602D01*
Y1144069D01*
X998023D01*
Y1134189D01*
X994699D01*
Y1121189D01*
X1008699D01*
Y1134189D01*
X1006180D01*
Y1144069D01*
X1008602D01*
Y1146990D01*
X1017024D01*
X1017024Y1146990D01*
X1018326Y1147249D01*
X1018584Y1147301D01*
X1019908Y1148185D01*
X1024893Y1153170D01*
X1032385D01*
Y1152900D01*
X1032385D01*
Y1139130D01*
X1050925D01*
Y1136590D01*
X1032385D01*
Y1122820D01*
X1035750D01*
Y1118460D01*
X1033145D01*
Y1109920D01*
Y1101380D01*
X1035750D01*
Y1092421D01*
X1030141D01*
Y1079421D01*
X1035750D01*
Y1068771D01*
X1028568D01*
Y1052731D01*
Y1036691D01*
X1035750D01*
Y1007120D01*
X1024555D01*
X1024401Y1007296D01*
X1024028Y1007321D01*
X1023682Y1007464D01*
X1013367D01*
X1012959Y1008666D01*
X1014784Y1010066D01*
X1016794Y1012686D01*
X1018057Y1015736D01*
X1018321Y1017740D01*
X993359D01*
X993623Y1015736D01*
X994886Y1012686D01*
X996896Y1010066D01*
X998721Y1008666D01*
X998313Y1007464D01*
X964630D01*
Y1220480D01*
X1045910D01*
Y1187460D01*
D02*
G37*
G36*
X877570Y1187450D02*
X872448D01*
X871572Y1188326D01*
Y1196059D01*
X858571D01*
Y1193137D01*
X843619D01*
X842058Y1192827D01*
X840735Y1191943D01*
X840735Y1191942D01*
X832776Y1183984D01*
X831892Y1182661D01*
X831841Y1182402D01*
X831582Y1181100D01*
X831582Y1181100D01*
Y1178059D01*
X828571D01*
Y1164059D01*
X841571D01*
Y1178059D01*
X839738D01*
Y1179411D01*
X845308Y1184980D01*
X850900D01*
Y1162778D01*
X846259Y1158137D01*
X841571D01*
Y1161059D01*
X828571D01*
Y1147059D01*
X830993D01*
Y1136729D01*
X828329D01*
Y1123728D01*
X842329D01*
Y1136729D01*
X839150D01*
Y1147059D01*
X841571D01*
Y1149980D01*
X847949D01*
X847949Y1149980D01*
X849250Y1150239D01*
X849509Y1150291D01*
X850833Y1151175D01*
X850833Y1151175D01*
X850833Y1151175D01*
X852818Y1153160D01*
X862820D01*
Y1141630D01*
X881360D01*
Y1139090D01*
X862820D01*
Y1125320D01*
X867410D01*
Y1120960D01*
X863580D01*
Y1112420D01*
Y1103880D01*
X867410D01*
Y1093571D01*
X860441D01*
Y1080572D01*
X867410D01*
Y1067441D01*
X859668D01*
Y1051401D01*
Y1035361D01*
X867410D01*
Y1007110D01*
X856237D01*
X856074Y1007296D01*
X855701Y1007321D01*
X855356Y1007464D01*
X845040D01*
X844632Y1008666D01*
X846444Y1010056D01*
X848454Y1012676D01*
X849717Y1015726D01*
X849981Y1017730D01*
X825019D01*
X825283Y1015726D01*
X826546Y1012676D01*
X828556Y1010056D01*
X830368Y1008666D01*
X829960Y1007464D01*
X796290D01*
Y1220470D01*
X877570D01*
Y1187450D01*
D02*
G37*
G36*
X1296670Y928370D02*
X1072420D01*
Y941071D01*
X1072441D01*
Y954072D01*
X1071229D01*
X1071158Y954306D01*
X1069626Y957173D01*
X1067564Y959685D01*
X1065051Y961747D01*
X1064988Y962041D01*
X1065885Y963210D01*
X1066098Y963724D01*
X1077363D01*
X1078332Y963851D01*
X1086831D01*
Y976852D01*
X1072831D01*
Y976836D01*
X1064330D01*
X1064042Y977212D01*
X1061640Y979055D01*
X1058842Y980214D01*
X1055840Y980609D01*
X1052838Y980214D01*
X1050040Y979055D01*
X1047638Y977212D01*
X1045795Y974810D01*
X1044636Y972012D01*
X1044241Y969010D01*
X1044636Y966008D01*
X1045795Y963210D01*
X1046692Y962041D01*
X1046629Y961747D01*
X1044116Y959685D01*
X1042054Y957173D01*
X1040522Y954306D01*
X1040444Y954047D01*
X1039942D01*
X1038430Y953848D01*
X1032799D01*
Y940848D01*
X1039260D01*
Y933208D01*
X1034423Y928370D01*
X796290D01*
X796193Y928273D01*
X795020Y928759D01*
Y1005840D01*
X855356D01*
X855764Y1004637D01*
X853556Y1002944D01*
X851546Y1000324D01*
X850283Y997274D01*
X850019Y995270D01*
X874981D01*
X874717Y997274D01*
X873454Y1000324D01*
X871444Y1002944D01*
X869236Y1004637D01*
X869644Y1005840D01*
X905356D01*
X905764Y1004637D01*
X903556Y1002944D01*
X901546Y1000324D01*
X900283Y997274D01*
X900019Y995270D01*
X924981D01*
X924717Y997274D01*
X923454Y1000324D01*
X921444Y1002944D01*
X919236Y1004637D01*
X919644Y1005840D01*
X1023682D01*
X1024091Y1004637D01*
X1021896Y1002954D01*
X1019886Y1000334D01*
X1018623Y997284D01*
X1018359Y995280D01*
X1043321D01*
X1043057Y997284D01*
X1041794Y1000334D01*
X1039784Y1002954D01*
X1037589Y1004637D01*
X1037998Y1005840D01*
X1073682D01*
X1074091Y1004637D01*
X1071896Y1002954D01*
X1069886Y1000334D01*
X1068623Y997284D01*
X1068359Y995280D01*
X1093321D01*
X1093057Y997284D01*
X1091794Y1000334D01*
X1089784Y1002954D01*
X1087589Y1004637D01*
X1087998Y1005840D01*
X1200212D01*
X1200621Y1004637D01*
X1198426Y1002954D01*
X1196416Y1000334D01*
X1195153Y997284D01*
X1194889Y995280D01*
X1219851D01*
X1219587Y997284D01*
X1218324Y1000334D01*
X1216314Y1002954D01*
X1214119Y1004637D01*
X1214528Y1005840D01*
X1250212D01*
X1250621Y1004637D01*
X1248426Y1002954D01*
X1246416Y1000334D01*
X1245153Y997284D01*
X1244889Y995280D01*
X1269851D01*
X1269587Y997284D01*
X1268324Y1000334D01*
X1266314Y1002954D01*
X1264119Y1004637D01*
X1264528Y1005840D01*
X1296670D01*
Y928370D01*
D02*
G37*
G36*
X1218630Y1187572D02*
X1215206D01*
X1214342Y1188436D01*
Y1194899D01*
X1201341D01*
Y1191977D01*
X1186629D01*
X1185068Y1191667D01*
X1183745Y1190782D01*
X1183745Y1190782D01*
X1176946Y1183984D01*
X1176062Y1182661D01*
X1175752Y1181100D01*
X1175823Y1180741D01*
Y1177609D01*
X1173401D01*
Y1163609D01*
X1186402D01*
Y1177609D01*
X1183980D01*
Y1179482D01*
X1188318Y1183820D01*
X1191960D01*
Y1157248D01*
X1186402D01*
Y1160609D01*
X1173401D01*
Y1146609D01*
X1175823D01*
Y1135459D01*
X1172499D01*
Y1122458D01*
X1186499D01*
Y1135459D01*
X1183980D01*
Y1146609D01*
X1186402D01*
Y1149092D01*
X1193810D01*
X1193810Y1149092D01*
X1195112Y1149351D01*
X1195371Y1149402D01*
X1196694Y1150286D01*
X1196694Y1150286D01*
X1196694Y1150286D01*
X1199817Y1153409D01*
X1204470D01*
Y1152900D01*
X1204470D01*
Y1139130D01*
X1223010D01*
Y1136590D01*
X1204470D01*
Y1122820D01*
X1208470D01*
Y1118460D01*
X1205230D01*
Y1109920D01*
Y1101380D01*
X1208470D01*
Y1092383D01*
X1204793D01*
Y1079383D01*
X1208470D01*
Y1067501D01*
X1203828D01*
Y1051461D01*
Y1035421D01*
X1208470D01*
Y1007899D01*
X1190464D01*
X1190056Y1009101D01*
X1191314Y1010066D01*
X1193324Y1012686D01*
X1194587Y1015736D01*
X1194851Y1017740D01*
X1169889D01*
X1170153Y1015736D01*
X1171416Y1012686D01*
X1173426Y1010066D01*
X1174684Y1009101D01*
X1174276Y1007899D01*
X1137350D01*
Y1220470D01*
X1218630D01*
Y1187572D01*
D02*
G37*
G36*
X1098550Y1155000D02*
X1050040D01*
Y1220470D01*
X1098550D01*
Y1155000D01*
D02*
G37*
G36*
X1459230Y1094457D02*
X1457984Y1094210D01*
X1457084Y1096384D01*
X1455074Y1099004D01*
X1452454Y1101014D01*
X1449404Y1102277D01*
X1447400Y1102541D01*
Y1090060D01*
Y1077579D01*
X1449404Y1077843D01*
X1452454Y1079106D01*
X1455074Y1081116D01*
X1457084Y1083736D01*
X1457984Y1085910D01*
X1459230Y1085663D01*
Y1044457D01*
X1457984Y1044210D01*
X1457084Y1046384D01*
X1455074Y1049004D01*
X1452454Y1051014D01*
X1449404Y1052277D01*
X1447400Y1052541D01*
Y1040060D01*
Y1027579D01*
X1449404Y1027843D01*
X1452454Y1029106D01*
X1455074Y1031116D01*
X1457084Y1033736D01*
X1457984Y1035910D01*
X1459230Y1035663D01*
Y1009650D01*
X1295400D01*
Y1168029D01*
X1282700D01*
Y1221740D01*
X1459230D01*
Y1094457D01*
D02*
G37*
G36*
X928370Y1157500D02*
X880000D01*
Y1220470D01*
X928370D01*
Y1157500D01*
D02*
G37*
G36*
X1271270Y1155000D02*
X1222600D01*
Y1221740D01*
X1271270D01*
Y1155000D01*
D02*
G37*
G36*
X1148750Y599500D02*
X1152710D01*
Y599020D01*
X1162790D01*
Y599500D01*
X1164960D01*
Y599020D01*
X1175040D01*
Y599500D01*
X1176750D01*
Y579000D01*
X1092250D01*
Y615000D01*
X1148750D01*
Y599500D01*
D02*
G37*
G36*
X1780540Y431800D02*
X1780819D01*
Y375920D01*
X1780884Y375889D01*
X1780606Y374650D01*
X1751330D01*
Y378802D01*
X1752018Y378939D01*
X1752736Y379418D01*
X1753981Y379170D01*
X1754157Y378907D01*
X1755576Y377959D01*
X1755980Y377879D01*
Y388750D01*
Y399621D01*
X1755576Y399541D01*
X1754157Y398593D01*
X1753981Y398330D01*
X1752736Y398082D01*
X1752018Y398561D01*
X1751330Y398698D01*
Y403860D01*
X1764734D01*
Y431800D01*
X1737360D01*
Y477520D01*
X1780540D01*
Y431800D01*
D02*
G37*
%LPC*%
G36*
X1018380Y981550D02*
X1007110D01*
Y970280D01*
X1018380D01*
Y981550D01*
D02*
G37*
G36*
X1181100D02*
X1169830D01*
Y970280D01*
X1181100D01*
Y981550D01*
D02*
G37*
G36*
X850040Y981540D02*
X838770D01*
Y970270D01*
X850040D01*
Y981540D01*
D02*
G37*
G36*
X1004570Y981550D02*
X993300D01*
Y970280D01*
X1004570D01*
Y981550D01*
D02*
G37*
G36*
X850040Y967730D02*
X838770D01*
Y956460D01*
X850040D01*
Y967730D01*
D02*
G37*
G36*
X935961Y977291D02*
X929191D01*
Y971021D01*
X935961D01*
Y977291D01*
D02*
G37*
G36*
X1095561Y977891D02*
X1088791D01*
Y971621D01*
X1095561D01*
Y977891D01*
D02*
G37*
G36*
X926651Y977291D02*
X919881D01*
Y971021D01*
X926651D01*
Y977291D01*
D02*
G37*
G36*
X1194910Y981550D02*
X1183640D01*
Y970280D01*
X1194910D01*
Y981550D01*
D02*
G37*
G36*
X836230Y967730D02*
X824960D01*
Y956460D01*
X836230D01*
Y967730D01*
D02*
G37*
G36*
X1274631Y969081D02*
X1267861D01*
Y962812D01*
X1274631D01*
Y969081D01*
D02*
G37*
G36*
X926651Y968482D02*
X919881D01*
Y962212D01*
X926651D01*
Y968482D01*
D02*
G37*
G36*
X935961D02*
X929191D01*
Y962212D01*
X935961D01*
Y968482D01*
D02*
G37*
G36*
X1095561Y969081D02*
X1088791D01*
Y962812D01*
X1095561D01*
Y969081D01*
D02*
G37*
G36*
X1104871D02*
X1098101D01*
Y962812D01*
X1104871D01*
Y969081D01*
D02*
G37*
G36*
X1194910Y967740D02*
X1183640D01*
Y956470D01*
X1194910D01*
Y967740D01*
D02*
G37*
G36*
X1283941Y969081D02*
X1277171D01*
Y962812D01*
X1283941D01*
Y969081D01*
D02*
G37*
G36*
X836230Y981540D02*
X824960D01*
Y970270D01*
X836230D01*
Y981540D01*
D02*
G37*
G36*
X1004570Y967740D02*
X993300D01*
Y956470D01*
X1004570D01*
Y967740D01*
D02*
G37*
G36*
X1181100D02*
X1169830D01*
Y956470D01*
X1181100D01*
Y967740D01*
D02*
G37*
G36*
X1018380D02*
X1007110D01*
Y956470D01*
X1018380D01*
Y967740D01*
D02*
G37*
G36*
X1430011Y1025339D02*
X1423741D01*
Y1018569D01*
X1430011D01*
Y1025339D01*
D02*
G37*
G36*
X836230Y1031481D02*
X834226Y1031217D01*
X831176Y1029954D01*
X828556Y1027944D01*
X826546Y1025324D01*
X825283Y1022274D01*
X825019Y1020270D01*
X836230D01*
Y1031481D01*
D02*
G37*
G36*
X838770D02*
Y1020270D01*
X849981D01*
X849717Y1022274D01*
X848454Y1025324D01*
X846444Y1027944D01*
X843824Y1029954D01*
X840774Y1031217D01*
X838770Y1031481D01*
D02*
G37*
G36*
X1256100Y992740D02*
X1244889D01*
X1245153Y990736D01*
X1246416Y987686D01*
X1248426Y985066D01*
X1251046Y983056D01*
X1254096Y981793D01*
X1256100Y981529D01*
Y992740D01*
D02*
G37*
G36*
X1269851D02*
X1258640D01*
Y981529D01*
X1260644Y981793D01*
X1263694Y983056D01*
X1266314Y985066D01*
X1268324Y987686D01*
X1269587Y990736D01*
X1269851Y992740D01*
D02*
G37*
G36*
X1421201Y1025339D02*
X1414931D01*
Y1018569D01*
X1421201D01*
Y1025339D01*
D02*
G37*
G36*
X1183640Y1031491D02*
Y1020280D01*
X1194851D01*
X1194587Y1022284D01*
X1193324Y1025334D01*
X1191314Y1027954D01*
X1188694Y1029964D01*
X1185644Y1031227D01*
X1183640Y1031491D01*
D02*
G37*
G36*
X1444860Y1038790D02*
X1433649D01*
X1433913Y1036786D01*
X1435176Y1033736D01*
X1437186Y1031116D01*
X1439806Y1029106D01*
X1442856Y1027843D01*
X1444860Y1027579D01*
Y1038790D01*
D02*
G37*
G36*
X1421201Y1034649D02*
X1414931D01*
Y1027879D01*
X1421201D01*
Y1034649D01*
D02*
G37*
G36*
X1004570Y1031491D02*
X1002566Y1031227D01*
X999516Y1029964D01*
X996896Y1027954D01*
X994886Y1025334D01*
X993623Y1022284D01*
X993359Y1020280D01*
X1004570D01*
Y1031491D01*
D02*
G37*
G36*
X1007110D02*
Y1020280D01*
X1018321D01*
X1018057Y1022284D01*
X1016794Y1025334D01*
X1014784Y1027954D01*
X1012164Y1029964D01*
X1009114Y1031227D01*
X1007110Y1031491D01*
D02*
G37*
G36*
X1181100D02*
X1179096Y1031227D01*
X1176046Y1029964D01*
X1173426Y1027954D01*
X1171416Y1025334D01*
X1170153Y1022284D01*
X1169889Y1020280D01*
X1181100D01*
Y1031491D01*
D02*
G37*
G36*
X1219851Y992740D02*
X1208640D01*
Y981529D01*
X1210644Y981793D01*
X1213694Y983056D01*
X1216314Y985066D01*
X1218324Y987686D01*
X1219587Y990736D01*
X1219851Y992740D01*
D02*
G37*
G36*
X861230Y992730D02*
X850019D01*
X850283Y990726D01*
X851546Y987676D01*
X853556Y985056D01*
X856176Y983046D01*
X859226Y981783D01*
X861230Y981519D01*
Y992730D01*
D02*
G37*
G36*
X874981D02*
X863770D01*
Y981519D01*
X865774Y981783D01*
X868824Y983046D01*
X871444Y985056D01*
X873454Y987676D01*
X874717Y990726D01*
X874981Y992730D01*
D02*
G37*
G36*
X911230D02*
X900019D01*
X900283Y990726D01*
X901546Y987676D01*
X903556Y985056D01*
X906176Y983046D01*
X909226Y981783D01*
X911230Y981519D01*
Y992730D01*
D02*
G37*
G36*
X1104871Y977891D02*
X1098101D01*
Y971621D01*
X1104871D01*
Y977891D01*
D02*
G37*
G36*
X1274631D02*
X1267861D01*
Y971621D01*
X1274631D01*
Y977891D01*
D02*
G37*
G36*
X1283941D02*
X1277171D01*
Y971621D01*
X1283941D01*
Y977891D01*
D02*
G37*
G36*
X1079570Y992740D02*
X1068359D01*
X1068623Y990736D01*
X1069886Y987686D01*
X1071896Y985066D01*
X1074516Y983056D01*
X1077566Y981793D01*
X1079570Y981529D01*
Y992740D01*
D02*
G37*
G36*
X1093321D02*
X1082110D01*
Y981529D01*
X1084114Y981793D01*
X1087164Y983056D01*
X1089784Y985066D01*
X1091794Y987686D01*
X1093057Y990736D01*
X1093321Y992740D01*
D02*
G37*
G36*
X1206100D02*
X1194889D01*
X1195153Y990736D01*
X1196416Y987686D01*
X1198426Y985066D01*
X1201046Y983056D01*
X1204096Y981793D01*
X1206100Y981529D01*
Y992740D01*
D02*
G37*
G36*
X924981Y992730D02*
X913770D01*
Y981519D01*
X915774Y981783D01*
X918824Y983046D01*
X921444Y985056D01*
X923454Y987676D01*
X924717Y990726D01*
X924981Y992730D01*
D02*
G37*
G36*
X1029570Y992740D02*
X1018359D01*
X1018623Y990736D01*
X1019886Y987686D01*
X1021896Y985066D01*
X1024516Y983056D01*
X1027566Y981793D01*
X1029570Y981529D01*
Y992740D01*
D02*
G37*
G36*
X1043321D02*
X1032110D01*
Y981529D01*
X1034114Y981793D01*
X1037164Y983056D01*
X1039784Y985066D01*
X1041794Y987686D01*
X1043057Y990736D01*
X1043321Y992740D01*
D02*
G37*
G36*
X1751290Y466980D02*
X1746520D01*
Y461210D01*
X1751290D01*
Y466980D01*
D02*
G37*
G36*
X1743980Y475290D02*
X1739210D01*
Y469520D01*
X1743980D01*
Y475290D01*
D02*
G37*
G36*
X1751290D02*
X1746520D01*
Y469520D01*
X1751290D01*
Y475290D01*
D02*
G37*
G36*
X1765300Y460828D02*
X1764602Y460736D01*
X1762767Y459976D01*
X1761192Y458768D01*
X1759984Y457192D01*
X1759224Y455358D01*
X1759132Y454660D01*
X1765300D01*
Y460828D01*
D02*
G37*
G36*
X1767840D02*
Y454660D01*
X1774008D01*
X1773916Y455358D01*
X1773156Y457192D01*
X1771948Y458768D01*
X1770372Y459976D01*
X1768538Y460736D01*
X1767840Y460828D01*
D02*
G37*
G36*
X1743980Y466980D02*
X1739210D01*
Y461210D01*
X1743980D01*
Y466980D01*
D02*
G37*
G36*
X1175040Y596480D02*
X1171270D01*
Y592710D01*
X1175040D01*
Y596480D01*
D02*
G37*
G36*
X853889Y945479D02*
X847119D01*
Y939209D01*
X853889D01*
Y945479D01*
D02*
G37*
G36*
X863199D02*
X856429D01*
Y939209D01*
X863199D01*
Y945479D01*
D02*
G37*
G36*
X1156480Y596480D02*
X1152710D01*
Y592710D01*
X1156480D01*
Y596480D01*
D02*
G37*
G36*
X1162790D02*
X1159020D01*
Y592710D01*
X1162790D01*
Y596480D01*
D02*
G37*
G36*
X1168730D02*
X1164960D01*
Y592710D01*
X1168730D01*
Y596480D01*
D02*
G37*
G36*
X1771230Y392429D02*
X1770793Y392372D01*
X1769202Y391713D01*
X1767836Y390664D01*
X1766787Y389298D01*
X1766128Y387707D01*
X1766071Y387270D01*
X1771230D01*
Y392429D01*
D02*
G37*
G36*
X1773770D02*
Y387270D01*
X1778929D01*
X1778872Y387707D01*
X1778213Y389298D01*
X1777164Y390664D01*
X1775798Y391713D01*
X1774207Y392372D01*
X1773770Y392429D01*
D02*
G37*
G36*
X1758520Y399621D02*
Y390020D01*
X1761624D01*
Y395500D01*
X1761291Y397174D01*
X1760343Y398593D01*
X1758924Y399541D01*
X1758520Y399621D01*
D02*
G37*
G36*
X1761624Y387480D02*
X1758520D01*
Y377879D01*
X1758924Y377959D01*
X1760343Y378907D01*
X1761291Y380326D01*
X1761624Y382000D01*
Y387480D01*
D02*
G37*
G36*
X1771230Y384730D02*
X1766071D01*
X1766128Y384293D01*
X1766787Y382702D01*
X1767836Y381336D01*
X1769202Y380287D01*
X1770793Y379628D01*
X1771230Y379571D01*
Y384730D01*
D02*
G37*
G36*
X1778929D02*
X1773770D01*
Y379571D01*
X1774207Y379628D01*
X1775798Y380287D01*
X1777164Y381336D01*
X1778213Y382702D01*
X1778872Y384293D01*
X1778929Y384730D01*
D02*
G37*
G36*
X1753040Y450290D02*
X1748770D01*
Y443520D01*
X1753040D01*
Y450290D01*
D02*
G37*
G36*
X1765300Y452120D02*
X1759132D01*
X1759224Y451422D01*
X1759984Y449588D01*
X1761192Y448012D01*
X1762767Y446804D01*
X1764602Y446044D01*
X1765300Y445952D01*
Y452120D01*
D02*
G37*
G36*
X1774008D02*
X1767840D01*
Y445952D01*
X1768538Y446044D01*
X1770372Y446804D01*
X1771948Y448012D01*
X1773156Y449588D01*
X1773916Y451422D01*
X1774008Y452120D01*
D02*
G37*
G36*
X1746230Y440980D02*
X1741960D01*
Y434210D01*
X1746230D01*
Y440980D01*
D02*
G37*
G36*
X1753040D02*
X1748770D01*
Y434210D01*
X1753040D01*
Y440980D01*
D02*
G37*
G36*
X1746230Y450290D02*
X1741960D01*
Y443520D01*
X1746230D01*
Y450290D01*
D02*
G37*
G36*
X921991Y954432D02*
X915221D01*
Y948161D01*
X921991D01*
Y954432D01*
D02*
G37*
G36*
X1021529Y954889D02*
X1014759D01*
Y948618D01*
X1021529D01*
Y954889D01*
D02*
G37*
G36*
X1030839D02*
X1024069D01*
Y948618D01*
X1030839D01*
Y954889D01*
D02*
G37*
G36*
X853889Y954288D02*
X847119D01*
Y948018D01*
X853889D01*
Y954288D01*
D02*
G37*
G36*
X863199D02*
X856429D01*
Y948018D01*
X863199D01*
Y954288D01*
D02*
G37*
G36*
X912681Y954432D02*
X905911D01*
Y948161D01*
X912681D01*
Y954432D01*
D02*
G37*
G36*
X1264891Y955032D02*
X1258121D01*
Y948762D01*
X1264891D01*
Y955032D01*
D02*
G37*
G36*
X1081171Y955111D02*
X1074401D01*
Y948841D01*
X1081171D01*
Y955111D01*
D02*
G37*
G36*
X1090481D02*
X1083711D01*
Y948841D01*
X1090481D01*
Y955111D01*
D02*
G37*
G36*
X1196789Y954889D02*
X1190019D01*
Y948618D01*
X1196789D01*
Y954889D01*
D02*
G37*
G36*
X1206099D02*
X1199329D01*
Y948618D01*
X1206099D01*
Y954889D01*
D02*
G37*
G36*
X1255581Y955032D02*
X1248811D01*
Y948762D01*
X1255581D01*
Y955032D01*
D02*
G37*
G36*
X1030839Y946078D02*
X1024069D01*
Y939809D01*
X1030839D01*
Y946078D01*
D02*
G37*
G36*
X1196789D02*
X1190019D01*
Y939809D01*
X1196789D01*
Y946078D01*
D02*
G37*
G36*
X1206099D02*
X1199329D01*
Y939809D01*
X1206099D01*
Y946078D01*
D02*
G37*
G36*
X912681Y945621D02*
X905911D01*
Y939352D01*
X912681D01*
Y945621D01*
D02*
G37*
G36*
X921991D02*
X915221D01*
Y939352D01*
X921991D01*
Y945621D01*
D02*
G37*
G36*
X1021529Y946078D02*
X1014759D01*
Y939809D01*
X1021529D01*
Y946078D01*
D02*
G37*
G36*
X1090481Y946301D02*
X1083711D01*
Y940032D01*
X1090481D01*
Y946301D01*
D02*
G37*
G36*
X887500Y980599D02*
X884498Y980204D01*
X881700Y979045D01*
X879298Y977202D01*
X877455Y974800D01*
X876296Y972002D01*
X875901Y969000D01*
X876296Y965998D01*
X877455Y963200D01*
X879298Y960798D01*
X880944Y959535D01*
Y953447D01*
X872302D01*
X870790Y953249D01*
X865159D01*
Y940248D01*
X879159D01*
Y940335D01*
X896951D01*
X897377Y940391D01*
X903951D01*
Y953391D01*
X897377D01*
X896951Y953447D01*
X894056D01*
Y959535D01*
X895702Y960798D01*
X897541Y963195D01*
X910921D01*
X911347Y963251D01*
X917921D01*
Y976252D01*
X911347D01*
X910921Y976308D01*
X896388D01*
X895702Y977202D01*
X893300Y979045D01*
X890502Y980204D01*
X887500Y980599D01*
D02*
G37*
G36*
X1232370Y980609D02*
X1229368Y980214D01*
X1226570Y979055D01*
X1224168Y977212D01*
X1222325Y974810D01*
X1221166Y972012D01*
X1220771Y969010D01*
X1221166Y966008D01*
X1222325Y963210D01*
X1224168Y960808D01*
X1225814Y959545D01*
Y953905D01*
X1215059D01*
X1214633Y953848D01*
X1208059D01*
Y940848D01*
X1214633D01*
X1215059Y940792D01*
X1232370D01*
X1233357Y940922D01*
X1239838D01*
X1240363Y940992D01*
X1246851D01*
Y953991D01*
X1240277D01*
X1239851Y954047D01*
X1239851Y954047D01*
X1239851Y954047D01*
X1239830Y954047D01*
X1238926Y954939D01*
Y959545D01*
X1240572Y960808D01*
X1242415Y963210D01*
X1242658Y963795D01*
X1258901D01*
X1259327Y963851D01*
X1265901D01*
Y976852D01*
X1259327D01*
X1258901Y976908D01*
X1240806D01*
X1240572Y977212D01*
X1238170Y979055D01*
X1235372Y980214D01*
X1232370Y980609D01*
D02*
G37*
G36*
X1255581Y946221D02*
X1248811D01*
Y939951D01*
X1255581D01*
Y946221D01*
D02*
G37*
G36*
X1264891D02*
X1258121D01*
Y939951D01*
X1264891D01*
Y946221D01*
D02*
G37*
G36*
X1081171Y946301D02*
X1074401D01*
Y940032D01*
X1081171D01*
Y946301D01*
D02*
G37*
G36*
X1240790Y1164650D02*
X1236620D01*
Y1157380D01*
X1240790D01*
Y1164650D01*
D02*
G37*
G36*
X1247500D02*
X1243330D01*
Y1157380D01*
X1247500D01*
Y1164650D01*
D02*
G37*
G36*
X886440Y1167150D02*
X882270D01*
Y1159880D01*
X886440D01*
Y1167150D01*
D02*
G37*
G36*
X1075415Y1164650D02*
X1071245D01*
Y1157380D01*
X1075415D01*
Y1164650D01*
D02*
G37*
G36*
X1228090D02*
X1223920D01*
Y1157380D01*
X1228090D01*
Y1164650D01*
D02*
G37*
G36*
X1234800D02*
X1230630D01*
Y1157380D01*
X1234800D01*
Y1164650D01*
D02*
G37*
G36*
X1056005Y1174460D02*
X1051835D01*
Y1167190D01*
X1056005D01*
Y1174460D01*
D02*
G37*
G36*
X1062715D02*
X1058545D01*
Y1167190D01*
X1062715D01*
Y1174460D01*
D02*
G37*
G36*
X1068705D02*
X1064535D01*
Y1167190D01*
X1068705D01*
Y1174460D01*
D02*
G37*
G36*
X893150Y1167150D02*
X888980D01*
Y1159880D01*
X893150D01*
Y1167150D01*
D02*
G37*
G36*
X899140D02*
X894970D01*
Y1159880D01*
X899140D01*
Y1167150D01*
D02*
G37*
G36*
X905850D02*
X901680D01*
Y1159880D01*
X905850D01*
Y1167150D01*
D02*
G37*
G36*
X826369Y1137768D02*
X819599D01*
Y1131498D01*
X826369D01*
Y1137768D01*
D02*
G37*
G36*
X1361272Y1151851D02*
X1350002D01*
Y1140581D01*
X1361272D01*
Y1151851D01*
D02*
G37*
G36*
X1375082D02*
X1363812D01*
Y1140581D01*
X1375082D01*
Y1151851D01*
D02*
G37*
G36*
X1161229Y1136498D02*
X1154459D01*
Y1130229D01*
X1161229D01*
Y1136498D01*
D02*
G37*
G36*
X1170539D02*
X1163769D01*
Y1130229D01*
X1170539D01*
Y1136498D01*
D02*
G37*
G36*
X817059Y1137768D02*
X810289D01*
Y1131498D01*
X817059D01*
Y1137768D01*
D02*
G37*
G36*
X1056005Y1164650D02*
X1051835D01*
Y1157380D01*
X1056005D01*
Y1164650D01*
D02*
G37*
G36*
X1062715D02*
X1058545D01*
Y1157380D01*
X1062715D01*
Y1164650D01*
D02*
G37*
G36*
X1068705D02*
X1064535D01*
Y1157380D01*
X1068705D01*
Y1164650D01*
D02*
G37*
G36*
X1337212Y1164621D02*
X1314212D01*
Y1141621D01*
X1337212D01*
Y1164621D01*
D02*
G37*
G36*
X1361272Y1165661D02*
X1350002D01*
Y1154391D01*
X1361272D01*
Y1165661D01*
D02*
G37*
G36*
X1375082D02*
X1363812D01*
Y1154391D01*
X1375082D01*
Y1165661D01*
D02*
G37*
G36*
X863801Y1204789D02*
X857532D01*
Y1198019D01*
X863801D01*
Y1204789D01*
D02*
G37*
G36*
X872611D02*
X866341D01*
Y1198019D01*
X872611D01*
Y1204789D01*
D02*
G37*
G36*
X1385980Y1211020D02*
X1383737Y1210574D01*
X1381835Y1209303D01*
X1380564Y1207401D01*
X1380117Y1205158D01*
X1380564Y1202914D01*
X1381835Y1201012D01*
X1383737Y1199741D01*
X1385980Y1199295D01*
X1388224Y1199741D01*
X1390125Y1201012D01*
X1391396Y1202914D01*
X1391843Y1205158D01*
X1391396Y1207401D01*
X1390125Y1209303D01*
X1388224Y1210574D01*
X1385980Y1211020D01*
D02*
G37*
G36*
X1042662Y1202359D02*
X1036392D01*
Y1195589D01*
X1042662D01*
Y1202359D01*
D02*
G37*
G36*
X1206572Y1203629D02*
X1200302D01*
Y1196859D01*
X1206572D01*
Y1203629D01*
D02*
G37*
G36*
X1215381D02*
X1209111D01*
Y1196859D01*
X1215381D01*
Y1203629D01*
D02*
G37*
G36*
Y1212939D02*
X1209111D01*
Y1206169D01*
X1215381D01*
Y1212939D01*
D02*
G37*
G36*
X863801Y1214099D02*
X857532D01*
Y1207329D01*
X863801D01*
Y1214099D01*
D02*
G37*
G36*
X872611D02*
X866341D01*
Y1207329D01*
X872611D01*
Y1214099D01*
D02*
G37*
G36*
X1033851Y1211669D02*
X1027581D01*
Y1204899D01*
X1033851D01*
Y1211669D01*
D02*
G37*
G36*
X1042662D02*
X1036392D01*
Y1204899D01*
X1042662D01*
Y1211669D01*
D02*
G37*
G36*
X1206572Y1212939D02*
X1200302D01*
Y1206169D01*
X1206572D01*
Y1212939D01*
D02*
G37*
G36*
X1240790Y1174460D02*
X1236620D01*
Y1167190D01*
X1240790D01*
Y1174460D01*
D02*
G37*
G36*
X1247500D02*
X1243330D01*
Y1167190D01*
X1247500D01*
Y1174460D01*
D02*
G37*
G36*
X1385980Y1180540D02*
X1383737Y1180094D01*
X1381835Y1178823D01*
X1380564Y1176921D01*
X1380117Y1174678D01*
X1380564Y1172434D01*
X1381835Y1170532D01*
X1383737Y1169261D01*
X1385980Y1168815D01*
X1388224Y1169261D01*
X1390125Y1170532D01*
X1391396Y1172434D01*
X1391843Y1174678D01*
X1391396Y1176921D01*
X1390125Y1178823D01*
X1388224Y1180094D01*
X1385980Y1180540D01*
D02*
G37*
G36*
X1075415Y1174460D02*
X1071245D01*
Y1167190D01*
X1075415D01*
Y1174460D01*
D02*
G37*
G36*
X1228090D02*
X1223920D01*
Y1167190D01*
X1228090D01*
Y1174460D01*
D02*
G37*
G36*
X1234800D02*
X1230630D01*
Y1167190D01*
X1234800D01*
Y1174460D01*
D02*
G37*
G36*
X905850Y1176960D02*
X901680D01*
Y1169690D01*
X905850D01*
Y1176960D01*
D02*
G37*
G36*
X1385980Y1195780D02*
X1383737Y1195334D01*
X1381835Y1194063D01*
X1380564Y1192161D01*
X1380117Y1189918D01*
X1380564Y1187674D01*
X1381835Y1185772D01*
X1383737Y1184501D01*
X1385980Y1184055D01*
X1388224Y1184501D01*
X1390125Y1185772D01*
X1391396Y1187674D01*
X1391843Y1189918D01*
X1391396Y1192161D01*
X1390125Y1194063D01*
X1388224Y1195334D01*
X1385980Y1195780D01*
D02*
G37*
G36*
X1033851Y1202359D02*
X1027581D01*
Y1195589D01*
X1033851D01*
Y1202359D01*
D02*
G37*
G36*
X886440Y1176960D02*
X882270D01*
Y1169690D01*
X886440D01*
Y1176960D01*
D02*
G37*
G36*
X893150D02*
X888980D01*
Y1169690D01*
X893150D01*
Y1176960D01*
D02*
G37*
G36*
X899140D02*
X894970D01*
Y1169690D01*
X899140D01*
Y1176960D01*
D02*
G37*
G36*
X992739Y1135229D02*
X985969D01*
Y1128959D01*
X992739D01*
Y1135229D01*
D02*
G37*
G36*
X1202833Y1084613D02*
X1196063D01*
Y1078343D01*
X1202833D01*
Y1084613D01*
D02*
G37*
G36*
X1018871Y1084651D02*
X1012101D01*
Y1078382D01*
X1018871D01*
Y1084651D01*
D02*
G37*
G36*
X1028181D02*
X1021411D01*
Y1078382D01*
X1028181D01*
Y1084651D01*
D02*
G37*
G36*
X1026028Y1068771D02*
X1016758D01*
Y1054001D01*
X1026028D01*
Y1068771D01*
D02*
G37*
G36*
X1444860Y1088790D02*
X1433649D01*
X1433913Y1086786D01*
X1435176Y1083736D01*
X1437186Y1081116D01*
X1439806Y1079106D01*
X1442856Y1077843D01*
X1444860Y1077579D01*
Y1088790D01*
D02*
G37*
G36*
X1193523Y1084613D02*
X1186753D01*
Y1078343D01*
X1193523D01*
Y1084613D01*
D02*
G37*
G36*
X1202833Y1093423D02*
X1196063D01*
Y1087153D01*
X1202833D01*
Y1093423D01*
D02*
G37*
G36*
X1018871Y1093462D02*
X1012101D01*
Y1087191D01*
X1018871D01*
Y1093462D01*
D02*
G37*
G36*
X1028181D02*
X1021411D01*
Y1087191D01*
X1028181D01*
Y1093462D01*
D02*
G37*
G36*
X849171Y1085801D02*
X842401D01*
Y1079531D01*
X849171D01*
Y1085801D01*
D02*
G37*
G36*
X858481D02*
X851711D01*
Y1079531D01*
X858481D01*
Y1085801D01*
D02*
G37*
G36*
X1193523Y1093423D02*
X1186753D01*
Y1087153D01*
X1193523D01*
Y1093423D01*
D02*
G37*
G36*
X857128Y1050131D02*
X847858D01*
Y1035361D01*
X857128D01*
Y1050131D01*
D02*
G37*
G36*
X1201288Y1050191D02*
X1192018D01*
Y1035421D01*
X1201288D01*
Y1050191D01*
D02*
G37*
G36*
X1405968Y1091911D02*
X1392968D01*
Y1085337D01*
X1392912Y1084911D01*
X1392968Y1084485D01*
Y1077911D01*
X1393055D01*
Y1060119D01*
X1393112Y1059693D01*
Y1053119D01*
X1406111D01*
Y1058504D01*
X1411665D01*
X1412928Y1056858D01*
X1415330Y1055015D01*
X1415915Y1054772D01*
Y1043609D01*
X1415972Y1043183D01*
Y1036609D01*
X1428972D01*
Y1043183D01*
X1429028Y1043609D01*
Y1056625D01*
X1429332Y1056858D01*
X1431175Y1059260D01*
X1432334Y1062058D01*
X1432729Y1065060D01*
X1432334Y1068062D01*
X1431175Y1070860D01*
X1429332Y1073262D01*
X1426930Y1075105D01*
X1424132Y1076264D01*
X1421130Y1076659D01*
X1418128Y1076264D01*
X1415330Y1075105D01*
X1412928Y1073262D01*
X1411665Y1071616D01*
X1406167D01*
Y1084768D01*
X1405968Y1086280D01*
Y1091911D01*
D02*
G37*
G36*
X1430011Y1034649D02*
X1423741D01*
Y1027879D01*
X1430011D01*
Y1034649D01*
D02*
G37*
G36*
X1398342Y1041849D02*
X1392072D01*
Y1035079D01*
X1398342D01*
Y1041849D01*
D02*
G37*
G36*
X1407151D02*
X1400882D01*
Y1035079D01*
X1407151D01*
Y1041849D01*
D02*
G37*
G36*
Y1051159D02*
X1400882D01*
Y1044389D01*
X1407151D01*
Y1051159D01*
D02*
G37*
G36*
X857128Y1067441D02*
X847858D01*
Y1052671D01*
X857128D01*
Y1067441D01*
D02*
G37*
G36*
X1201288Y1067501D02*
X1192018D01*
Y1052731D01*
X1201288D01*
Y1067501D01*
D02*
G37*
G36*
X1026028Y1051461D02*
X1016758D01*
Y1036691D01*
X1026028D01*
Y1051461D01*
D02*
G37*
G36*
X1444860Y1052541D02*
X1442856Y1052277D01*
X1439806Y1051014D01*
X1437186Y1049004D01*
X1435176Y1046384D01*
X1433913Y1043334D01*
X1433649Y1041330D01*
X1444860D01*
Y1052541D01*
D02*
G37*
G36*
X1398342Y1051159D02*
X1392072D01*
Y1044389D01*
X1398342D01*
Y1051159D01*
D02*
G37*
G36*
X1419860Y1127600D02*
X1408590D01*
Y1116330D01*
X1419860D01*
Y1127600D01*
D02*
G37*
G36*
X1433670D02*
X1422400D01*
Y1116330D01*
X1433670D01*
Y1127600D01*
D02*
G37*
G36*
X983429Y1126419D02*
X976659D01*
Y1120148D01*
X983429D01*
Y1126419D01*
D02*
G37*
G36*
X1030605Y1118460D02*
X1026435D01*
Y1111190D01*
X1030605D01*
Y1118460D01*
D02*
G37*
G36*
X1202690D02*
X1198520D01*
Y1111190D01*
X1202690D01*
Y1118460D01*
D02*
G37*
G36*
X861040Y1120960D02*
X856870D01*
Y1113690D01*
X861040D01*
Y1120960D01*
D02*
G37*
G36*
X817059Y1128959D02*
X810289D01*
Y1122689D01*
X817059D01*
Y1128959D01*
D02*
G37*
G36*
X826369D02*
X819599D01*
Y1122689D01*
X826369D01*
Y1128959D01*
D02*
G37*
G36*
X983429Y1135229D02*
X976659D01*
Y1128959D01*
X983429D01*
Y1135229D01*
D02*
G37*
G36*
X992739Y1126419D02*
X985969D01*
Y1120148D01*
X992739D01*
Y1126419D01*
D02*
G37*
G36*
X1161229Y1127689D02*
X1154459D01*
Y1121419D01*
X1161229D01*
Y1127689D01*
D02*
G37*
G36*
X1170539D02*
X1163769D01*
Y1121419D01*
X1170539D01*
Y1127689D01*
D02*
G37*
G36*
X1398199Y1100641D02*
X1391929D01*
Y1093871D01*
X1398199D01*
Y1100641D01*
D02*
G37*
G36*
X1407009D02*
X1400739D01*
Y1093871D01*
X1407009D01*
Y1100641D01*
D02*
G37*
G36*
X1030605Y1108650D02*
X1026435D01*
Y1101380D01*
X1030605D01*
Y1108650D01*
D02*
G37*
G36*
X849171Y1094612D02*
X842401D01*
Y1088342D01*
X849171D01*
Y1094612D01*
D02*
G37*
G36*
X858481D02*
X851711D01*
Y1088342D01*
X858481D01*
Y1094612D01*
D02*
G37*
G36*
X1444860Y1102541D02*
X1442856Y1102277D01*
X1439806Y1101014D01*
X1437186Y1099004D01*
X1435176Y1096384D01*
X1433913Y1093334D01*
X1433649Y1091330D01*
X1444860D01*
Y1102541D01*
D02*
G37*
G36*
X1398199Y1109951D02*
X1391929D01*
Y1103181D01*
X1398199D01*
Y1109951D01*
D02*
G37*
G36*
X1407009D02*
X1400739D01*
Y1103181D01*
X1407009D01*
Y1109951D01*
D02*
G37*
G36*
X861040Y1111150D02*
X856870D01*
Y1103880D01*
X861040D01*
Y1111150D01*
D02*
G37*
G36*
X1202690Y1108650D02*
X1198520D01*
Y1101380D01*
X1202690D01*
Y1108650D01*
D02*
G37*
G36*
X1419860Y1113790D02*
X1408590D01*
Y1102520D01*
X1419860D01*
Y1113790D01*
D02*
G37*
G36*
X1433670D02*
X1422400D01*
Y1102520D01*
X1433670D01*
Y1113790D01*
D02*
G37*
%LPD*%
D19*
X961000Y692000D02*
D03*
X951000D02*
D03*
X1056250Y821750D02*
D03*
X1066250D02*
D03*
X1058500Y744750D02*
D03*
X1068500D02*
D03*
X1046500Y646250D02*
D03*
X1056500D02*
D03*
D20*
X1522005Y518122D02*
D03*
Y511622D02*
D03*
Y505122D02*
D03*
Y498622D02*
D03*
Y492122D02*
D03*
Y485622D02*
D03*
Y479122D02*
D03*
Y472622D02*
D03*
Y466122D02*
D03*
Y459622D02*
D03*
Y453122D02*
D03*
Y446622D02*
D03*
Y440122D02*
D03*
Y433622D02*
D03*
X1456545Y518122D02*
D03*
Y511622D02*
D03*
Y505122D02*
D03*
Y498622D02*
D03*
Y492122D02*
D03*
Y485622D02*
D03*
Y479122D02*
D03*
Y472622D02*
D03*
Y466122D02*
D03*
Y459622D02*
D03*
Y453122D02*
D03*
Y446622D02*
D03*
Y440122D02*
D03*
Y433622D02*
D03*
X1522005Y403122D02*
D03*
Y396622D02*
D03*
Y390122D02*
D03*
Y383622D02*
D03*
Y377122D02*
D03*
Y370622D02*
D03*
Y364122D02*
D03*
Y357622D02*
D03*
Y351122D02*
D03*
Y344622D02*
D03*
Y338122D02*
D03*
Y331622D02*
D03*
Y325122D02*
D03*
Y318622D02*
D03*
X1456545Y403122D02*
D03*
Y396622D02*
D03*
Y390122D02*
D03*
Y383622D02*
D03*
Y377122D02*
D03*
Y370622D02*
D03*
Y364122D02*
D03*
Y357622D02*
D03*
Y351122D02*
D03*
Y344622D02*
D03*
Y338122D02*
D03*
Y331622D02*
D03*
Y325122D02*
D03*
Y318622D02*
D03*
D22*
X858398Y1051401D02*
D03*
X886398Y1051401D02*
D03*
X1027298Y1052731D02*
D03*
X1055298Y1052731D02*
D03*
X1202558Y1051461D02*
D03*
X1230558Y1051461D02*
D03*
D24*
X967750Y673750D02*
D03*
Y663750D02*
D03*
X964500Y590750D02*
D03*
Y580750D02*
D03*
X962750Y832250D02*
D03*
Y822250D02*
D03*
X968250Y755750D02*
D03*
Y745750D02*
D03*
X1172250Y735000D02*
D03*
Y725000D02*
D03*
X1160000Y744500D02*
D03*
Y734500D02*
D03*
X1170000Y607750D02*
D03*
Y597750D02*
D03*
X1157750Y607750D02*
D03*
Y597750D02*
D03*
X1540250Y340500D02*
D03*
Y350500D02*
D03*
X1439000Y364250D02*
D03*
Y354250D02*
D03*
X1435000Y478750D02*
D03*
Y468750D02*
D03*
X1543750Y452500D02*
D03*
Y462500D02*
D03*
X737250Y1086250D02*
D03*
Y1076250D02*
D03*
D25*
X989750Y821700D02*
D03*
Y834400D02*
D03*
Y847100D02*
D03*
Y859800D02*
D03*
X1037750Y821700D02*
D03*
Y834400D02*
D03*
Y847100D02*
D03*
Y859800D02*
D03*
X712500Y1089550D02*
D03*
Y1076850D02*
D03*
Y1064150D02*
D03*
Y1051450D02*
D03*
X664500Y1089550D02*
D03*
Y1076850D02*
D03*
Y1064150D02*
D03*
Y1051450D02*
D03*
X989750Y744700D02*
D03*
Y757400D02*
D03*
Y770100D02*
D03*
Y782800D02*
D03*
X1037750Y744700D02*
D03*
Y757400D02*
D03*
Y770100D02*
D03*
Y782800D02*
D03*
X989000Y662200D02*
D03*
Y674900D02*
D03*
Y687600D02*
D03*
Y700300D02*
D03*
X1037000Y662200D02*
D03*
Y674900D02*
D03*
Y687600D02*
D03*
Y700300D02*
D03*
X987750Y579200D02*
D03*
Y591900D02*
D03*
Y604600D02*
D03*
Y617300D02*
D03*
X1035750Y579200D02*
D03*
Y591900D02*
D03*
Y604600D02*
D03*
Y617300D02*
D03*
D26*
X1151750Y733000D02*
X1157750Y727000D01*
X1157000Y717250D02*
X1172750D01*
X1054500Y617250D02*
X1077250D01*
X1095250Y599250D01*
D27*
X915000Y726000D02*
X963250D01*
X966750Y722500D01*
Y691750D02*
Y722500D01*
X1160000Y744500D02*
X1169000D01*
X1157750Y607750D02*
X1162750Y612750D01*
X1164000D01*
X1165000D01*
X1170000Y607750D01*
X1504378Y485622D02*
X1522005D01*
X1456545Y472622D02*
X1483878D01*
X1503122Y459622D02*
X1522005D01*
Y377122D02*
X1534622D01*
X1535000Y377500D01*
X1426500Y364122D02*
X1456545D01*
X1490000Y500000D02*
X1504378Y485622D01*
X1456545Y357622D02*
X1477372D01*
X1489500Y369750D01*
X1490372Y370622D02*
X1522005D01*
X1489500Y369750D02*
X1490372Y370622D01*
X1508128Y351122D02*
X1522005D01*
X1489500Y369750D02*
X1508128Y351122D01*
X1445622Y357622D02*
X1456545D01*
X1442250Y354250D02*
X1445622Y357622D01*
X1439000Y354250D02*
X1442250D01*
X1522005Y351122D02*
X1539628D01*
X1540250Y350500D01*
X1522005Y344622D02*
X1532378D01*
X1536500Y340500D01*
X1540250D01*
X1503500Y344622D02*
X1522005D01*
X1444622Y472622D02*
X1456545D01*
X1440750Y468750D02*
X1444622Y472622D01*
X1435000Y468750D02*
X1440750D01*
X1428372Y479122D02*
X1456545D01*
X1522005Y466122D02*
X1540128D01*
X1543750Y462500D01*
X1522005Y459622D02*
X1532128D01*
X1539250Y452500D01*
X1543750D01*
X1522005Y492122D02*
X1538878D01*
X1539000Y492000D01*
X1509628Y466122D02*
X1522005D01*
X1490000Y485750D02*
X1509628Y466122D01*
D28*
X838370Y525638D02*
G03*
X818995Y533663I-11350J0D01*
G01*
X810128Y542530D02*
G03*
X813452Y550556I-8026J8026D01*
G01*
X836638Y519612D02*
G03*
X838370Y525638I-9618J6026D01*
G01*
X909708Y504412D02*
G03*
X887296Y501872I-11062J-2540D01*
G01*
X874756D02*
G03*
X872216Y504412I-2540J0D01*
G01*
X813452Y550556D02*
G03*
X794076Y558582I-11350J0D01*
G01*
X785209Y567449D02*
G03*
X794076Y558582I4434J-4434D01*
G01*
X810128Y542530D02*
G03*
X818995Y533663I4434J-4434D01*
G01*
X788533Y575474D02*
G03*
X771158Y585093I-11350J0D01*
G01*
X785209Y567449D02*
G03*
X788533Y575474I-8026J8026D01*
G01*
X904916Y501872D02*
G03*
X892376Y501872I-6270J-0D01*
G01*
X833290Y525638D02*
G03*
X822587Y530071I-6270J0D01*
G01*
X904916Y501872D02*
G03*
X907456Y499332I2540J0D01*
G01*
X831454Y521204D02*
G03*
X833290Y525638I-4434J4434D01*
G01*
X806535Y546122D02*
G03*
X808372Y550556I-4434J4434D01*
G01*
X831454Y521204D02*
G03*
X831454Y517612I1796J-1796D01*
G01*
X869964Y499332D02*
G03*
X892376Y501872I11062J2540D01*
G01*
X769158Y579908D02*
G03*
X772750Y579908I1796J1796D01*
G01*
X808372Y550556D02*
G03*
X797668Y554990I-6270J0D01*
G01*
X781617Y571041D02*
G03*
X797668Y554990I8026J-8026D01*
G01*
X806535Y546122D02*
G03*
X822587Y530071I8026J-8026D01*
G01*
X783454Y575474D02*
G03*
X772750Y579908I-6270J0D01*
G01*
X781617Y571041D02*
G03*
X783454Y575474I-4434J4434D01*
G01*
X874756Y501872D02*
G03*
X887296Y501872I6270J0D01*
G01*
X932950Y436500D02*
G03*
X930410Y433960I0J-2540D01*
G01*
X917870D02*
G03*
X930410Y433960I6270J0D01*
G01*
X776910D02*
G03*
X754498Y436500I-11350J-0D01*
G01*
X912790Y433960D02*
G03*
X935202Y431420I11350J0D01*
G01*
X771830Y433960D02*
G03*
X759290Y433960I-6270J-0D01*
G01*
X756750Y431420D02*
G03*
X759290Y433960I0J2540D01*
G01*
X917870D02*
G03*
X895170Y433960I-11350J-0D01*
G01*
X882630D02*
G03*
X895170Y433960I6270J0D01*
G01*
X882630D02*
G03*
X859930Y433960I-11350J-0D01*
G01*
X847390D02*
G03*
X859930Y433960I6270J0D01*
G01*
X847390D02*
G03*
X824690Y433960I-11350J-0D01*
G01*
X812150D02*
G03*
X789450Y433960I-11350J-0D01*
G01*
X812150D02*
G03*
X824690Y433960I6270J0D01*
G01*
X776910D02*
G03*
X789450Y433960I6270J0D01*
G01*
X877550D02*
G03*
X865010Y433960I-6270J-0D01*
G01*
X842310D02*
G03*
X829770Y433960I-6270J-0D01*
G01*
X912790D02*
G03*
X900250Y433960I-6270J-0D01*
G01*
X842310D02*
G03*
X865010Y433960I11350J0D01*
G01*
X877550D02*
G03*
X900250Y433960I11350J0D01*
G01*
X807070D02*
G03*
X794530Y433960I-6270J-0D01*
G01*
X771830D02*
G03*
X794530Y433960I11350J0D01*
G01*
X807070D02*
G03*
X829770Y433960I11350J0D01*
G01*
X957822Y369000D02*
G03*
X935410Y366460I-11062J-2540D01*
G01*
X781910D02*
G03*
X759498Y369000I-11350J-0D01*
G01*
X852390Y366460D02*
G03*
X829690Y366460I-11350J-0D01*
G01*
X922870D02*
G03*
X935410Y366460I6270J0D01*
G01*
X922870D02*
G03*
X900170Y366460I-11350J-0D01*
G01*
X887630D02*
G03*
X900170Y366460I6270J0D01*
G01*
X887630D02*
G03*
X864930Y366460I-11350J-0D01*
G01*
X852390D02*
G03*
X864930Y366460I6270J0D01*
G01*
X817150D02*
G03*
X829690Y366460I6270J0D01*
G01*
X817150D02*
G03*
X794450Y366460I-11350J-0D01*
G01*
X781910D02*
G03*
X794450Y366460I6270J0D01*
G01*
X953030D02*
G03*
X940490Y366460I-6270J-0D01*
G01*
X847310D02*
G03*
X834770Y366460I-6270J-0D01*
G01*
X812070D02*
G03*
X799530Y366460I-6270J-0D01*
G01*
X917790D02*
G03*
X905250Y366460I-6270J-0D01*
G01*
X882550D02*
G03*
X870010Y366460I-6270J-0D01*
G01*
X953030D02*
G03*
X955570Y363920I2540J0D01*
G01*
X917790Y366460D02*
G03*
X940490Y366460I11350J0D01*
G01*
X847310D02*
G03*
X870010Y366460I11350J0D01*
G01*
X812070D02*
G03*
X834770Y366460I11350J0D01*
G01*
X882550D02*
G03*
X905250Y366460I11350J0D01*
G01*
X776830D02*
G03*
X799530Y366460I11350J0D01*
G01*
X776830D02*
G03*
X764290Y366460I-6270J-0D01*
G01*
X761750Y363920D02*
G03*
X764290Y366460I-0J2540D01*
G01*
X938000Y825000D02*
X978500D01*
X981500Y834250D02*
Y834400D01*
X940104Y830080D02*
X977330D01*
X978500Y825000D02*
X982000Y821500D01*
X893230Y869770D02*
X938000Y825000D01*
X571500Y869770D02*
X893230D01*
X977330Y830080D02*
X981500Y834250D01*
X895334Y874850D02*
X940104Y830080D01*
X571500Y874850D02*
X895334D01*
X1455835Y517412D02*
X1456545Y518122D01*
X963838Y517412D02*
X1455835D01*
X714512Y766738D02*
Y788738D01*
Y766738D02*
X963838Y517412D01*
X569750Y856488D02*
X646762D01*
X714512Y788738D01*
X709432Y764634D02*
Y786634D01*
X961734Y512332D02*
X1455835D01*
X644658Y851408D02*
X709432Y786634D01*
X1455835Y512332D02*
X1456545Y511622D01*
X709432Y764634D02*
X961734Y512332D01*
X569500Y851408D02*
X644658D01*
X836638Y519612D02*
X851838Y504412D01*
X909708D02*
X1455835D01*
X851838D02*
X872216D01*
X649512Y706738D02*
X771158Y585093D01*
X907456Y499332D02*
X1455835D01*
X831454Y517612D02*
X849734Y499332D01*
X869964D01*
X647408Y701658D02*
X769158Y579908D01*
X1455835Y504412D02*
X1456545Y505122D01*
X564500Y706738D02*
X649512D01*
X1455835Y499332D02*
X1456545Y498622D01*
X565000Y701658D02*
X647408D01*
X602690Y555810D02*
X722000Y436500D01*
X932950D02*
X1289566D01*
X722000D02*
X754498D01*
X935202Y431420D02*
X1291670D01*
X756750D02*
X756750D01*
X719896D02*
X756750D01*
X1455835Y452412D02*
X1456545Y453122D01*
X1305478Y452412D02*
X1455835D01*
X1289566Y436500D02*
X1305478Y452412D01*
X1455835Y447332D02*
X1456545Y446622D01*
X1307582Y447332D02*
X1455835D01*
X1291670Y431420D02*
X1307582Y447332D01*
X600046Y551270D02*
X719896Y431420D01*
X979650Y674900D02*
X989000D01*
X939396Y671290D02*
X976040D01*
X979650Y674900D01*
X916936Y648830D02*
X939396Y671290D01*
X865511Y650341D02*
X872406D01*
X873918Y648830D01*
X916936D01*
X975790Y666210D02*
X979800Y662200D01*
X941500Y666210D02*
X975790D01*
X979800Y662200D02*
X989000D01*
X919040Y643750D02*
X941500Y666210D01*
X870750Y643750D02*
X919040D01*
X870469Y644031D02*
X870750Y643750D01*
X869792Y644031D02*
X870469D01*
X957822Y369000D02*
X1292316D01*
X640250D02*
X759498D01*
X1455835Y439412D02*
X1456545Y440122D01*
X1362728Y439412D02*
X1455835D01*
X1292316Y369000D02*
X1362728Y439412D01*
X561238Y407838D02*
X601412D01*
X640250Y369000D01*
X1455835Y434332D02*
X1456545Y433622D01*
X1364832Y434332D02*
X1455835D01*
X1294420Y363920D02*
X1364832Y434332D01*
X955570Y363920D02*
X1294420D01*
X559770Y401270D02*
X600796D01*
X559750Y401250D02*
X559770Y401270D01*
X761750Y363920D02*
X761750D01*
X600796Y401270D02*
X638146Y363920D01*
X761750D01*
X1522005Y357622D02*
X1549730D01*
X1522005Y364122D02*
X1549730D01*
X1522005Y472622D02*
X1544128D01*
X1522005Y479122D02*
X1544188D01*
X1438500Y318500D02*
X1438622Y318622D01*
X1456545D01*
X1438628Y325122D02*
X1456545D01*
X1438628Y331622D02*
X1456545D01*
X1438628Y338122D02*
X1456545D01*
X1440128Y383622D02*
X1456545D01*
X1440128Y390122D02*
X1456545D01*
X1440128Y396622D02*
X1456545D01*
X1440128Y403122D02*
X1456545D01*
X1205500Y905000D02*
X1449250Y661250D01*
X712500Y1076850D02*
X725750D01*
X975134Y588784D02*
X978250Y591900D01*
X976000Y582750D02*
X979000Y579750D01*
X986450Y580500D02*
X987750Y579200D01*
X752750Y753290D02*
X975540D01*
X979650Y757400D02*
X989750D01*
X975540Y753290D02*
X979650Y757400D01*
X1499500Y661250D02*
X1665000Y495750D01*
X1449250Y661250D02*
X1499500D01*
X1703000Y495750D02*
Y514750D01*
X1665000Y495750D02*
X1703000D01*
X1718250Y388750D02*
Y399000D01*
X1724250Y405000D01*
X1742250D02*
X1747500Y410250D01*
Y418250D01*
X1737000Y405000D02*
X1738500Y406500D01*
Y417750D01*
X1738000Y418250D02*
X1738500Y417750D01*
X1724250Y405000D02*
X1737000D01*
X1742250D01*
X1728500Y442250D02*
Y452250D01*
X1730500Y454250D01*
Y468000D01*
X1730250Y468250D02*
X1730500Y468000D01*
X1703000Y495500D02*
X1730250Y468250D01*
X635031Y1086803D02*
X637687D01*
X638750Y1085740D01*
X648222D01*
X652032Y1089550D01*
X664500D01*
X648222Y1080660D02*
X652032Y1076850D01*
X664500D01*
X638781Y1080303D02*
Y1080629D01*
X638750Y1080660D02*
X638781Y1080629D01*
Y1080660D02*
X648222D01*
X758000Y748210D02*
X977990D01*
X981500Y744700D01*
X946000Y580500D02*
X954500D01*
X956750Y582750D01*
X976000D01*
X951750Y588784D02*
X975134D01*
D29*
X1638990Y1075000D02*
X1670000D01*
X1629339Y1084651D02*
X1638990Y1075000D01*
X1629339Y1084651D02*
Y1096341D01*
X1628559Y1114121D02*
X1629339Y1113341D01*
X1628559Y1114121D02*
Y1159929D01*
X1611187Y1160300D02*
X1611559Y1159929D01*
X1584700Y1160300D02*
X1611187D01*
X835071Y1131928D02*
Y1154059D01*
X875010Y1094640D02*
Y1112420D01*
X867441Y1087072D02*
X875010Y1094640D01*
X843619Y1189059D02*
X865071D01*
X835660Y1181100D02*
X843619Y1189059D01*
X835071Y1171059D02*
X835660Y1171647D01*
Y1181100D01*
X1011369Y1186629D02*
X1035122D01*
X1002030Y1177290D02*
X1011369Y1186629D01*
X1002030Y1177290D02*
X1002102Y1177218D01*
Y1168069D02*
Y1177218D01*
Y1128091D02*
Y1151069D01*
X1001699Y1127689D02*
X1002102Y1128091D01*
X1044575Y1093355D02*
Y1109920D01*
X1037141Y1085921D02*
X1044575Y1093355D01*
X1216660Y1090750D02*
Y1109920D01*
X1211793Y1085883D02*
X1216660Y1090750D01*
X1179902Y1131541D02*
Y1153609D01*
X1179797Y1131437D02*
X1179902Y1131541D01*
X1186629Y1187899D02*
X1209111D01*
X1179830Y1181100D02*
X1186629Y1187899D01*
X1179830Y1181100D02*
X1179902Y1181029D01*
Y1170609D02*
Y1181029D01*
X1216660Y1165920D02*
Y1180350D01*
X1209111Y1187899D02*
X1216660Y1180350D01*
X1179902Y1153609D02*
X1180340Y1153170D01*
X1044575Y1165920D02*
Y1177175D01*
X1035122Y1186629D02*
X1044575Y1177175D01*
X1017024Y1151069D02*
X1031875Y1165920D01*
X1002102Y1151069D02*
X1017024D01*
X865071Y1189059D02*
X875010Y1179120D01*
Y1168420D02*
Y1179120D01*
X847949Y1154059D02*
X862310Y1168420D01*
X835071Y1154059D02*
X847949D01*
X1180340Y1153170D02*
X1193810D01*
X1203960Y1163320D01*
Y1165920D01*
X1172250Y735000D02*
Y741250D01*
X1012800Y662200D02*
X1014000D01*
X1036250D01*
D30*
X1081591Y947492D02*
Y947492D01*
X1058838Y663322D02*
X1081249D01*
X724250Y1090000D02*
X765000D01*
X1012500Y662500D02*
X1012800Y662200D01*
X1012500Y745000D02*
X1012800Y744700D01*
X1233711Y970351D02*
X1258901D01*
X1057110Y970280D02*
X1077363D01*
X1492178Y1081101D02*
X1493448Y1082371D01*
X1476137Y1065060D02*
X1492178Y1081101D01*
X1512498Y1082371D02*
X1532818D01*
X1493448D02*
X1512498D01*
X1471130Y1065060D02*
X1476137D01*
X1512498Y1099371D02*
X1532818D01*
X1490909D02*
X1512498D01*
X1475220Y1115060D02*
X1490909Y1099371D01*
X1471130Y1115060D02*
X1475220D01*
X1695000Y1075000D02*
X1699463D01*
X1712032Y1087569D01*
X1743960Y1075000D02*
X1750000D01*
X1732352Y1086608D02*
X1743960Y1075000D01*
X1732352Y1086608D02*
Y1087569D01*
X1767391Y1082609D02*
X1775000Y1075000D01*
X1767391Y1082609D02*
Y1089732D01*
X1750000Y1090123D02*
X1750391Y1089732D01*
X1750000Y1090123D02*
Y1105000D01*
X1749569Y1104569D02*
X1750000Y1105000D01*
X1732352Y1104569D02*
X1749569D01*
X1695000Y1105000D02*
X1695431Y1104569D01*
X1712032D01*
X905118Y1113398D02*
X935099D01*
X904240Y1112520D02*
X905118Y1113398D01*
X887730Y1140460D02*
X888668Y1141398D01*
X935099D01*
X892000Y1092000D02*
Y1096000D01*
X1057275Y1099185D02*
Y1101090D01*
X1060450Y1089660D02*
Y1096010D01*
X1057275Y1099185D02*
X1060450Y1096010D01*
X888000Y1100000D02*
X892000Y1096000D01*
X888000Y1100000D02*
Y1104000D01*
X1056640Y1137920D02*
X1056712Y1137848D01*
X1104999D01*
X1074552Y1109848D02*
X1104999D01*
X1074420Y1109980D02*
X1074552Y1109848D01*
X1223022Y1137848D02*
X1276449D01*
X1223010Y1137860D02*
X1223022Y1137848D01*
X1246002Y1109848D02*
X1276449D01*
X1245870Y1109980D02*
X1246002Y1109848D01*
X1229360Y1099820D02*
Y1102360D01*
X1234440Y1088390D02*
Y1094740D01*
X1229360Y1099820D02*
X1234440Y1094740D01*
X1399612Y1060119D02*
Y1084768D01*
X1399469Y1084911D02*
X1399612Y1084768D01*
X1404553Y1065060D02*
X1421130D01*
X1422471Y1043609D02*
Y1063718D01*
X1421130Y1065060D02*
X1422471Y1063718D01*
X1055840Y947962D02*
Y969010D01*
X1055370Y947492D02*
X1055840Y947962D01*
X1039942Y947492D02*
X1055370D01*
X888251Y969752D02*
X910921D01*
X887500Y969000D02*
X888251Y969752D01*
X887500Y947932D02*
Y969000D01*
X886460Y946891D02*
X887500Y947932D01*
X886460Y946891D02*
X896951D01*
X872302D02*
X886460D01*
X1423750Y472500D02*
Y474500D01*
X1428372Y479122D01*
X1431000Y481750D01*
X1437000D01*
X1232370Y947478D02*
X1239838D01*
X1239851Y947492D01*
X1232370D02*
Y969010D01*
X1215059Y947348D02*
X1232370D01*
X1055840Y947492D02*
X1064591D01*
X1717500Y418250D02*
X1725750D01*
X1706000Y406750D02*
X1717500Y418250D01*
X1699500Y331750D02*
X1715000D01*
X1069800Y859800D02*
X1081591Y871591D01*
X1068550Y782800D02*
X1081591Y795841D01*
X1077000Y744750D02*
X1095250Y726500D01*
X1072750Y744750D02*
X1077000D01*
X1036250Y653750D02*
X1042500Y647500D01*
X1036250Y653750D02*
Y657500D01*
X1060000Y646250D02*
X1081091D01*
X1081591Y646750D01*
D31*
X1037000Y700300D02*
X1076000D01*
X1037750Y782800D02*
X1068550D01*
X1037750Y859800D02*
X1069800D01*
X1016500Y579200D02*
X1035750D01*
X712500Y1051450D02*
X720500Y1043450D01*
Y1042500D02*
Y1043450D01*
X1037750Y821700D02*
X1055800D01*
X1037750Y744700D02*
X1056500D01*
X1012800D02*
X1037750D01*
X1015050Y821700D02*
X1037750D01*
X1014000Y822750D02*
X1015050Y821700D01*
X1035750Y617300D02*
X1054500D01*
D32*
X1603250Y607500D02*
X1603250D01*
X887500Y1019000D02*
X892000Y1023500D01*
Y1092000D01*
X1055840Y1019010D02*
X1060450Y1023620D01*
Y1089660D01*
X1232370Y1019010D02*
X1234440Y1021080D01*
Y1088390D01*
X1012500Y642750D02*
X1013250Y643500D01*
Y661750D01*
X1012800Y662200D02*
X1013250Y661750D01*
X1012500Y595000D02*
Y642750D01*
X776500Y986500D02*
X802500D01*
X720500Y1042500D02*
X776500Y986500D01*
X737250Y1026500D02*
Y1067750D01*
X1081591Y629471D02*
Y646750D01*
Y714561D01*
X1014000Y662200D02*
Y822750D01*
Y884500D01*
X1012500Y580750D02*
Y595000D01*
D33*
X1489500Y369750D02*
Y435750D01*
X1489500Y435750D02*
X1489500Y435750D01*
X1081591Y871591D02*
X1113250Y903250D01*
Y936250D01*
X1490000Y485750D02*
Y500000D01*
X1081591Y788659D02*
Y795841D01*
Y788659D02*
X1095250Y775000D01*
X1263750Y904250D02*
X1264000Y904000D01*
X1306750D01*
X1355250Y855500D01*
X1243500Y904000D02*
X1263750D01*
X1081591Y795841D02*
Y871591D01*
X1095250Y726500D02*
Y775000D01*
Y599250D02*
Y726500D01*
D34*
X1355250Y855500D02*
X1603250Y607500D01*
D37*
X1489500Y435750D02*
Y442910D01*
X1483622Y448788D02*
X1489500Y442910D01*
X1483622Y448788D02*
Y467078D01*
D38*
X1014000Y884500D02*
X1055840Y926340D01*
Y947492D01*
Y947962D01*
X1489500Y359741D02*
Y369750D01*
X1483000Y353241D02*
X1489500Y359741D01*
X1483000Y309250D02*
Y353241D01*
Y309250D02*
X1495750Y296500D01*
X1567250D01*
X1095250Y726500D02*
X1142250D01*
D44*
X300000Y1125000D02*
D03*
X280000Y1025000D02*
D03*
Y824500D02*
D03*
X300000Y924500D02*
D03*
Y624500D02*
D03*
X280000Y524500D02*
D03*
Y674500D02*
D03*
X300000Y774500D02*
D03*
Y474500D02*
D03*
X280000Y374500D02*
D03*
D45*
X550000Y1045000D02*
D03*
X535000D02*
D03*
X520000D02*
D03*
X505000D02*
D03*
X490000D02*
D03*
X550000Y1082000D02*
D03*
X535000D02*
D03*
X520000D02*
D03*
X505000D02*
D03*
X490000D02*
D03*
Y1100500D02*
D03*
X550000D02*
D03*
X535000D02*
D03*
X520000D02*
D03*
X505000D02*
D03*
X490000Y1063500D02*
D03*
X505000D02*
D03*
X520000D02*
D03*
X535000D02*
D03*
X550000D02*
D03*
Y863000D02*
D03*
X535000D02*
D03*
X520000D02*
D03*
X505000D02*
D03*
X490000D02*
D03*
X505000Y900000D02*
D03*
X520000D02*
D03*
X535000D02*
D03*
X550000D02*
D03*
X490000D02*
D03*
Y881500D02*
D03*
X505000D02*
D03*
X520000D02*
D03*
X535000D02*
D03*
X550000D02*
D03*
X490000Y844500D02*
D03*
X505000D02*
D03*
X520000D02*
D03*
X535000D02*
D03*
X550000D02*
D03*
Y544500D02*
D03*
X535000D02*
D03*
X520000D02*
D03*
X505000D02*
D03*
X490000D02*
D03*
X550000Y581500D02*
D03*
X535000D02*
D03*
X520000D02*
D03*
X505000D02*
D03*
X490000D02*
D03*
Y600000D02*
D03*
X550000D02*
D03*
X535000D02*
D03*
X520000D02*
D03*
X505000D02*
D03*
X490000Y563000D02*
D03*
X505000D02*
D03*
X520000D02*
D03*
X535000D02*
D03*
X550000D02*
D03*
Y713000D02*
D03*
X535000D02*
D03*
X520000D02*
D03*
X505000D02*
D03*
X490000D02*
D03*
X505000Y750000D02*
D03*
X520000D02*
D03*
X535000D02*
D03*
X550000D02*
D03*
X490000D02*
D03*
Y731500D02*
D03*
X505000D02*
D03*
X520000D02*
D03*
X535000D02*
D03*
X550000D02*
D03*
X490000Y694500D02*
D03*
X505000D02*
D03*
X520000D02*
D03*
X535000D02*
D03*
X550000D02*
D03*
Y394500D02*
D03*
X535000D02*
D03*
X520000D02*
D03*
X505000D02*
D03*
X490000D02*
D03*
X550000Y431500D02*
D03*
X535000D02*
D03*
X520000D02*
D03*
X505000D02*
D03*
X490000D02*
D03*
Y450000D02*
D03*
X550000D02*
D03*
X535000D02*
D03*
X520000D02*
D03*
X505000D02*
D03*
X490000Y413000D02*
D03*
X505000D02*
D03*
X520000D02*
D03*
X535000D02*
D03*
X550000D02*
D03*
X1144250Y735750D02*
D03*
X1172500Y716000D02*
D03*
X1243330Y1181100D02*
D03*
X1229360D02*
D03*
X1070610D02*
D03*
X1056640D02*
D03*
X893000Y1149000D02*
D03*
X887730Y1140460D02*
D03*
X893000Y1132000D02*
D03*
X879000Y1149000D02*
D03*
X872490Y1140460D02*
D03*
X879000Y1132000D02*
D03*
X1047910Y1129460D02*
D03*
X1041400Y1137920D02*
D03*
X1047910Y1146460D02*
D03*
X1061910Y1129460D02*
D03*
X1056640Y1137920D02*
D03*
X1061910Y1146460D02*
D03*
X1233170Y1146030D02*
D03*
X1227900Y1137490D02*
D03*
X1233170Y1129030D02*
D03*
X1219170Y1146030D02*
D03*
X1212660Y1137490D02*
D03*
X1219170Y1129030D02*
D03*
X1304290Y1187450D02*
D03*
Y1205230D02*
D03*
X1134110D02*
D03*
Y1187450D02*
D03*
X962660Y1205230D02*
D03*
Y1186180D02*
D03*
X913130Y1168400D02*
D03*
X1082040Y1165860D02*
D03*
X1257300D02*
D03*
X1446940Y1173408D02*
D03*
X1446940Y1189918D02*
D03*
X900430Y1205230D02*
D03*
X1070610Y1203960D02*
D03*
X1244600Y1205230D02*
D03*
X900430Y1181100D02*
D03*
X887730D02*
D03*
X1385980Y1174678D02*
D03*
Y1189918D02*
D03*
Y1205158D02*
D03*
X1446940Y1206428D02*
D03*
X944750Y691750D02*
D03*
X966750D02*
D03*
X1169750Y744750D02*
D03*
X1164000Y612750D02*
D03*
X1477250Y500000D02*
D03*
X1490000D02*
D03*
X1502500Y500250D02*
D03*
X1503122Y459622D02*
D03*
X1426500Y364122D02*
D03*
X1535000Y377500D02*
D03*
X1423250Y472000D02*
D03*
X1539000Y492000D02*
D03*
X1706000Y406750D02*
D03*
X1772500Y386000D02*
D03*
X1699500Y332000D02*
D03*
X1054500Y617250D02*
D03*
D46*
X473000Y1100500D02*
D03*
Y1082000D02*
D03*
Y1063500D02*
D03*
Y1045000D02*
D03*
Y844500D02*
D03*
Y863000D02*
D03*
Y881500D02*
D03*
Y900000D02*
D03*
Y600000D02*
D03*
Y581500D02*
D03*
Y563000D02*
D03*
Y544500D02*
D03*
Y694500D02*
D03*
Y713000D02*
D03*
Y731500D02*
D03*
Y750000D02*
D03*
Y450000D02*
D03*
Y431500D02*
D03*
Y413000D02*
D03*
Y394500D02*
D03*
D47*
X287500Y1222250D02*
D03*
Y277250D02*
D03*
D48*
X1830000Y654750D02*
D03*
X1816000D02*
D03*
X1802000D02*
D03*
X1788000D02*
D03*
X1774000D02*
D03*
X1760000D02*
D03*
X1746000D02*
D03*
X1732000D02*
D03*
X1704000D02*
D03*
X1690000D02*
D03*
X1676000D02*
D03*
X1829000Y634750D02*
D03*
X1815000D02*
D03*
X1801000D02*
D03*
X1787000D02*
D03*
X1773000D02*
D03*
X1759000D02*
D03*
X1745000D02*
D03*
X1731000D02*
D03*
X1703000D02*
D03*
X1689000D02*
D03*
X1675000D02*
D03*
X1830000Y614750D02*
D03*
X1816000D02*
D03*
X1802000D02*
D03*
X1788000D02*
D03*
X1774000D02*
D03*
X1760000D02*
D03*
X1746000D02*
D03*
X1732000D02*
D03*
X1704000D02*
D03*
X1690000D02*
D03*
X1676000D02*
D03*
X1829000Y594750D02*
D03*
X1815000D02*
D03*
X1801000D02*
D03*
X1787000D02*
D03*
X1773000D02*
D03*
X1759000D02*
D03*
X1745000D02*
D03*
X1731000D02*
D03*
X1703000D02*
D03*
X1689000D02*
D03*
X1675000D02*
D03*
X1830000Y574750D02*
D03*
X1816000D02*
D03*
X1802000D02*
D03*
X1788000D02*
D03*
X1774000D02*
D03*
X1760000D02*
D03*
X1746000D02*
D03*
X1732000D02*
D03*
X1704000D02*
D03*
X1690000D02*
D03*
X1676000D02*
D03*
X1829000Y554750D02*
D03*
X1815000D02*
D03*
X1801000D02*
D03*
X1787000D02*
D03*
X1773000D02*
D03*
X1759000D02*
D03*
X1745000D02*
D03*
X1731000D02*
D03*
X1703000D02*
D03*
X1689000D02*
D03*
X1675000D02*
D03*
X1830000Y534750D02*
D03*
X1816000D02*
D03*
X1802000D02*
D03*
X1788000D02*
D03*
X1774000D02*
D03*
X1760000D02*
D03*
X1746000D02*
D03*
X1732000D02*
D03*
X1704000D02*
D03*
X1690000D02*
D03*
X1676000Y534750D02*
D03*
X1829000Y514750D02*
D03*
X1815000D02*
D03*
X1801000D02*
D03*
X1787000D02*
D03*
X1773000D02*
D03*
X1759000D02*
D03*
X1745000D02*
D03*
X1731000D02*
D03*
X1703000D02*
D03*
X1689000D02*
D03*
X1675000D02*
D03*
X1718000Y654750D02*
D03*
X1717000Y634750D02*
D03*
X1718000Y614750D02*
D03*
X1717000Y594750D02*
D03*
X1718000Y574750D02*
D03*
X1717000Y554750D02*
D03*
X1718000Y534750D02*
D03*
X1717000Y514750D02*
D03*
X1830000Y819750D02*
D03*
X1816000D02*
D03*
X1802000D02*
D03*
X1788000D02*
D03*
X1774000D02*
D03*
X1760000D02*
D03*
X1746000D02*
D03*
X1732000D02*
D03*
X1704000D02*
D03*
X1690000D02*
D03*
X1676000D02*
D03*
X1829000Y799750D02*
D03*
X1815000D02*
D03*
X1801000D02*
D03*
X1787000D02*
D03*
X1773000D02*
D03*
X1759000D02*
D03*
X1745000D02*
D03*
X1731000D02*
D03*
X1703000D02*
D03*
X1689000D02*
D03*
X1675000D02*
D03*
X1830000Y779750D02*
D03*
X1816000D02*
D03*
X1802000D02*
D03*
X1788000D02*
D03*
X1774000D02*
D03*
X1760000D02*
D03*
X1746000D02*
D03*
X1732000D02*
D03*
X1704000D02*
D03*
X1690000D02*
D03*
X1676000D02*
D03*
X1829000Y759750D02*
D03*
X1815000D02*
D03*
X1801000D02*
D03*
X1787000D02*
D03*
X1773000D02*
D03*
X1759000D02*
D03*
X1745000D02*
D03*
X1731000D02*
D03*
X1703000D02*
D03*
X1689000D02*
D03*
X1675000D02*
D03*
X1830000Y739750D02*
D03*
X1816000D02*
D03*
X1802000D02*
D03*
X1788000D02*
D03*
X1774000D02*
D03*
X1760000D02*
D03*
X1746000D02*
D03*
X1732000D02*
D03*
X1704000D02*
D03*
X1690000D02*
D03*
X1676000D02*
D03*
X1829000Y719750D02*
D03*
X1815000D02*
D03*
X1801000D02*
D03*
X1787000D02*
D03*
X1773000D02*
D03*
X1759000D02*
D03*
X1745000D02*
D03*
X1731000D02*
D03*
X1703000D02*
D03*
X1689000D02*
D03*
X1675000D02*
D03*
X1830000Y699750D02*
D03*
X1816000D02*
D03*
X1802000D02*
D03*
X1788000D02*
D03*
X1774000D02*
D03*
X1760000D02*
D03*
X1746000D02*
D03*
X1732000D02*
D03*
X1704000D02*
D03*
X1690000D02*
D03*
X1676000Y699750D02*
D03*
X1829000Y679750D02*
D03*
X1815000D02*
D03*
X1801000D02*
D03*
X1787000D02*
D03*
X1773000D02*
D03*
X1759000D02*
D03*
X1745000D02*
D03*
X1731000D02*
D03*
X1703000D02*
D03*
X1689000D02*
D03*
X1675000D02*
D03*
X1718000Y819750D02*
D03*
X1717000Y799750D02*
D03*
X1718000Y779750D02*
D03*
X1717000Y759750D02*
D03*
X1718000Y739750D02*
D03*
X1717000Y719750D02*
D03*
X1718000Y699750D02*
D03*
X1717000Y679750D02*
D03*
D49*
X1325712Y1153121D02*
D03*
X1362542D02*
D03*
X1770000Y947000D02*
D03*
X1182370Y969010D02*
D03*
X1005840D02*
D03*
X837500Y969000D02*
D03*
X1484332Y947211D02*
D03*
X1547332Y947711D02*
D03*
D50*
X1421130Y1115060D02*
D03*
D51*
Y1065060D02*
D03*
X1446130Y1090060D02*
D03*
X1471130Y1065060D02*
D03*
Y1115060D02*
D03*
X1446130Y1040060D02*
D03*
X1720000Y947000D02*
D03*
X1745000Y922000D02*
D03*
X1720000Y897000D02*
D03*
X1770000D02*
D03*
X1695000Y922000D02*
D03*
X1232370Y969010D02*
D03*
X1207370Y994010D02*
D03*
X1232370Y1019010D02*
D03*
X1182370D02*
D03*
X1257370Y994010D02*
D03*
X1055840Y969010D02*
D03*
X1030840Y994010D02*
D03*
X1055840Y1019010D02*
D03*
X1005840D02*
D03*
X1080840Y994010D02*
D03*
X887500Y969000D02*
D03*
X862500Y994000D02*
D03*
X887500Y1019000D02*
D03*
X837500D02*
D03*
X912500Y994000D02*
D03*
X1602000Y606250D02*
D03*
X1263750Y904250D02*
D03*
X1235750Y904000D02*
D03*
X1543500Y296250D02*
D03*
X1567250D02*
D03*
D52*
X864500Y650750D02*
D03*
X869792Y644031D02*
D03*
X1549730Y364122D02*
D03*
Y357622D02*
D03*
X1641250Y356250D02*
D03*
Y366500D02*
D03*
X1639000Y470500D02*
D03*
X1638750Y481500D02*
D03*
X1544128Y472622D02*
D03*
X1544188Y479122D02*
D03*
X1438628Y325122D02*
D03*
X1438628Y331622D02*
D03*
X1438628Y338122D02*
D03*
X1438622Y318622D02*
D03*
X1440128Y383622D02*
D03*
X1440128Y390122D02*
D03*
X1440128Y396622D02*
D03*
X1143750Y769750D02*
D03*
Y763250D02*
D03*
Y629750D02*
D03*
X1256372Y386128D02*
D03*
X1256372Y392628D02*
D03*
X1256372Y399128D02*
D03*
X1375250Y418500D02*
D03*
Y425000D02*
D03*
X752750Y753290D02*
D03*
X1213000Y769750D02*
D03*
Y750250D02*
D03*
Y756750D02*
D03*
Y763250D02*
D03*
Y711250D02*
D03*
Y717750D02*
D03*
X1126490Y662940D02*
D03*
X1064650Y757400D02*
D03*
X1192530Y820420D02*
D03*
X1201420Y834390D02*
D03*
X725750Y1077000D02*
D03*
X1205500Y905000D02*
D03*
X1213000Y704750D02*
D03*
Y698250D02*
D03*
X1143750Y623250D02*
D03*
X1213000Y642750D02*
D03*
Y636250D02*
D03*
Y571250D02*
D03*
Y577750D02*
D03*
Y610250D02*
D03*
Y616750D02*
D03*
X1143750Y750250D02*
D03*
Y756750D02*
D03*
X1213000Y737250D02*
D03*
Y743750D02*
D03*
X1143750Y642750D02*
D03*
Y636250D02*
D03*
X1213000Y685250D02*
D03*
Y691750D02*
D03*
Y623250D02*
D03*
Y629750D02*
D03*
Y590750D02*
D03*
Y584250D02*
D03*
Y558250D02*
D03*
Y564750D02*
D03*
X1143750D02*
D03*
Y558250D02*
D03*
X1256372Y379628D02*
D03*
X1440128Y403122D02*
D03*
X635031Y1086803D02*
D03*
X638781Y1080303D02*
D03*
X1037750Y834400D02*
D03*
X1065000Y674900D02*
D03*
X758500Y747750D02*
D03*
X1256250Y444750D02*
D03*
Y464250D02*
D03*
X622500Y990750D02*
D03*
X627750Y996250D02*
D03*
X1256250Y457750D02*
D03*
X1257750Y451128D02*
D03*
X679250Y424330D02*
D03*
X946000Y580500D02*
D03*
X670500Y419260D02*
D03*
X949750Y589250D02*
D03*
D53*
X331250Y954250D02*
D03*
Y991000D02*
D03*
Y972750D02*
D03*
X514500Y954500D02*
D03*
X442000Y972750D02*
D03*
X514500Y992000D02*
D03*
X1766570Y453390D02*
D03*
X1167130Y586740D02*
D03*
X1058838Y663322D02*
D03*
X765000Y1090000D02*
D03*
X1584700Y1160300D02*
D03*
X1750000Y1050000D02*
D03*
X1775000D02*
D03*
Y1075000D02*
D03*
X1750000D02*
D03*
X1695000Y1050000D02*
D03*
X1670000D02*
D03*
X1695000Y1075000D02*
D03*
X1670000D02*
D03*
X1775000Y1105000D02*
D03*
Y1130000D02*
D03*
X1750000D02*
D03*
Y1105000D02*
D03*
X1695000D02*
D03*
Y1130000D02*
D03*
X1670000Y1105000D02*
D03*
Y1130000D02*
D03*
X915000Y726000D02*
D03*
D54*
X1012500Y595000D02*
D03*
X1012250Y611250D02*
D03*
D55*
X1142250Y719000D02*
D03*
X1141750Y608750D02*
D03*
X1141250Y592000D02*
D03*
X1503500Y344750D02*
D03*
D57*
X1037000Y674900D02*
X1065000D01*
X1307310Y662940D02*
X1373000Y597250D01*
X1126490Y662940D02*
X1307310D01*
X1399700Y613250D02*
X1503750D01*
X1192530Y820420D02*
X1399700Y613250D01*
X1613250Y348750D02*
Y523000D01*
X1507000Y629250D02*
X1613250Y523000D01*
X1406750Y629250D02*
X1507000D01*
X1595000Y347250D02*
Y522000D01*
X1503750Y613250D02*
X1595000Y522000D01*
X1579250Y339750D02*
Y518750D01*
X1500750Y597250D02*
X1579250Y518750D01*
X1373000Y597250D02*
X1500750D01*
X1568750Y333250D02*
Y510500D01*
X1537750Y541500D02*
X1568750Y510500D01*
X1655750Y306250D02*
X1719000D01*
X1613250Y348750D02*
X1655750Y306250D01*
X1619750Y282250D02*
X1733250D01*
X1568750Y333250D02*
X1619750Y282250D01*
X1201600Y834400D02*
X1406750Y629250D01*
X1719000Y306250D02*
X1731250Y318500D01*
Y331750D01*
X1037750Y757400D02*
X1064650D01*
X1595000Y347250D02*
X1643000Y299250D01*
X1723750D01*
X1737750Y313250D01*
Y331750D01*
X1579250Y339750D02*
X1627250Y291750D01*
X1731000D01*
X1750750Y311500D01*
Y331750D01*
X1733250Y282250D02*
X1757250Y306250D01*
Y331750D01*
X1724750D02*
Y388750D01*
X1731250Y368000D02*
Y388750D01*
Y368000D02*
X1744250Y355000D01*
Y331750D02*
Y355000D01*
X1035750Y591900D02*
X1048850D01*
X1099250Y541500D01*
X1537750D01*
D58*
X1207841Y1187899D02*
D03*
Y1204899D02*
D03*
X1035122Y1186629D02*
D03*
Y1203629D02*
D03*
X865071Y1189059D02*
D03*
Y1206059D02*
D03*
X1399469Y1101911D02*
D03*
Y1084911D02*
D03*
X1399612Y1043119D02*
D03*
Y1060119D02*
D03*
X1422471Y1026609D02*
D03*
Y1043609D02*
D03*
X1492178Y1099371D02*
D03*
Y1082371D02*
D03*
X1512498Y1099371D02*
D03*
Y1082371D02*
D03*
X1532818Y1099371D02*
D03*
Y1082371D02*
D03*
X1712032Y1087569D02*
D03*
Y1104569D02*
D03*
X1732352Y1087569D02*
D03*
Y1104569D02*
D03*
X835071Y1154059D02*
D03*
Y1171059D02*
D03*
X1002102Y1151069D02*
D03*
Y1168069D02*
D03*
X1179902Y1153609D02*
D03*
Y1170609D02*
D03*
X1629339Y1113341D02*
D03*
Y1096341D02*
D03*
D59*
X1198059Y947348D02*
D03*
X1215059D02*
D03*
X1256851Y947492D02*
D03*
X1239851D02*
D03*
X1275901Y970351D02*
D03*
X1258901D02*
D03*
X1767391Y1089732D02*
D03*
X1750391D02*
D03*
X1611559Y1159929D02*
D03*
X1628559D02*
D03*
X818329Y1130229D02*
D03*
X835329D02*
D03*
X855159Y946749D02*
D03*
X872159D02*
D03*
X927921Y969752D02*
D03*
X910921D02*
D03*
X913951Y946891D02*
D03*
X896951D02*
D03*
X867441Y1087072D02*
D03*
X850441D02*
D03*
X984699Y1127689D02*
D03*
X1001699D02*
D03*
X1037141Y1085921D02*
D03*
X1020141D02*
D03*
X1022799Y947348D02*
D03*
X1039799D02*
D03*
X1082441Y947571D02*
D03*
X1065441D02*
D03*
X1096831Y970351D02*
D03*
X1079831D02*
D03*
X1162499Y1128959D02*
D03*
X1179499D02*
D03*
X1211793Y1085883D02*
D03*
X1194793D02*
D03*
D60*
X1747500Y442250D02*
D03*
X1728500D02*
D03*
Y418250D02*
D03*
X1738000D02*
D03*
X1747500D02*
D03*
D61*
X1745250Y468250D02*
D03*
X1730250D02*
D03*
D62*
X900410Y1112420D02*
D03*
X887710D02*
D03*
X875010D02*
D03*
X862310D02*
D03*
X900410Y1168420D02*
D03*
X887710D02*
D03*
X875010D02*
D03*
X862310D02*
D03*
X1069975Y1109920D02*
D03*
X1057275D02*
D03*
X1044575D02*
D03*
X1031875D02*
D03*
X1069975Y1165920D02*
D03*
X1057275D02*
D03*
X1044575D02*
D03*
X1031875D02*
D03*
X1242060Y1109920D02*
D03*
X1229360D02*
D03*
X1216660D02*
D03*
X1203960D02*
D03*
X1242060Y1165920D02*
D03*
X1229360D02*
D03*
X1216660D02*
D03*
X1203960D02*
D03*
D63*
X881360Y1140360D02*
D03*
X1050925Y1137860D02*
D03*
X1223010D02*
D03*
D64*
X935099Y1113398D02*
D03*
X935099Y1141398D02*
D03*
X1104999Y1109848D02*
D03*
X1104999Y1137848D02*
D03*
X1276449Y1109848D02*
D03*
X1276449Y1137848D02*
D03*
D65*
X1757250Y331750D02*
D03*
X1750750D02*
D03*
X1744250D02*
D03*
X1737750D02*
D03*
X1731250D02*
D03*
X1724750D02*
D03*
X1718250D02*
D03*
X1757250Y388750D02*
D03*
X1750750D02*
D03*
X1744250D02*
D03*
X1737750D02*
D03*
X1731250D02*
D03*
X1724750D02*
D03*
X1718250D02*
D03*
D66*
X500750Y878500D02*
X503750Y881500D01*
X500750Y876580D02*
Y878500D01*
Y876580D02*
X502750Y874580D01*
X490000Y881500D02*
X491710D01*
X495460Y877750D01*
X503750Y881500D02*
X505000D01*
X495460Y875450D02*
Y877750D01*
Y875450D02*
X500869Y870040D01*
X502750Y874580D02*
X571230D01*
X571500Y874850D01*
X500869Y870040D02*
X571230D01*
X571500Y869770D01*
X490000Y844500D02*
X491960D01*
X494710Y847250D01*
X502000Y844500D02*
X505000D01*
X499250Y847250D02*
X502000Y844500D01*
X494710Y847250D02*
Y851309D01*
X499619Y856218D01*
X499250Y847250D02*
Y849428D01*
X501500Y851678D01*
X499619Y856218D02*
X569480D01*
X569750Y856488D01*
X501500Y851678D02*
X569230D01*
X569500Y851408D01*
X501500Y700101D02*
X503057Y701658D01*
X501500Y698000D02*
Y700101D01*
Y698000D02*
X505000Y694500D01*
X501750Y706250D02*
X564012D01*
X490000Y694500D02*
X501750Y706250D01*
X503057Y701658D02*
X565000D01*
X564012Y706250D02*
X564500Y706738D01*
X490000Y544500D02*
X492460D01*
X495710Y547750D01*
X503500Y544500D02*
X505000D01*
X500250Y547750D02*
X503500Y544500D01*
X495710Y547750D02*
Y551130D01*
X500250Y547750D02*
Y549250D01*
X495710Y551130D02*
X500390Y555810D01*
X602690D01*
X500250Y549250D02*
X502270Y551270D01*
X600046D01*
X559470Y406070D02*
X561238Y407838D01*
X501619Y406070D02*
X559470D01*
X494960Y399411D02*
X501619Y406070D01*
X494960Y397000D02*
Y399411D01*
X492460Y394500D02*
X494960Y397000D01*
X491420Y394500D02*
X492460D01*
X559470Y401530D02*
X559750Y401250D01*
X503500Y401530D02*
X559470D01*
X499500Y397000D02*
Y397530D01*
X503500Y401530D01*
X502000Y394500D02*
X505000D01*
X499500Y397000D02*
X502000Y394500D01*
D67*
X1232370Y969010D02*
X1233711Y970351D01*
X1039799Y947348D02*
X1039942Y947492D01*
X1078633Y971550D02*
X1079831Y970351D01*
X872159Y946749D02*
X872302Y946891D01*
X842682Y946749D02*
X855159D01*
X837500Y951930D02*
X842682Y946749D01*
X837500Y951930D02*
Y969000D01*
X1055840Y969010D02*
X1057110Y970280D01*
X1058380Y971550D01*
D68*
X861695Y1137609D02*
D03*
X1030605Y1135069D02*
D03*
X1203325D02*
D03*
D69*
X956310Y1189355D02*
D03*
D70*
X1130300Y1186815D02*
D03*
M02*
